{"isSuccess":true,"message":"Success","data":{"successMessage":"Records retrieved successfully","errorMessage":null,"responseCode":200,"total":1680,"totalPages":168,"rowsPerPage":10,"pageItemsCount":10,"pageNumber":1,"queryString":"","list":[[{"applicationID":"03acd3c1-9ba8-428f-9d4e-2d1441187708","productID":"46fd9ca6-f179-4d56-9e45-b50b257a65c2","categoryName":"Children's Savings Account","customerID":"6f0f0344-4c13-4e06-a5df-29cab489c206","dateOfApplication":"2024-03-08T00:00:00","dateCreated":"2024-03-08T16:12:29.117","firstName":"Richard","lastName":"Adibe","email":"adiberichard12@gmail.com","phone":"2348066923517","gender":"male","providerName":"Realty Invest Network Solution","providerID":"f2158613-d3ab-47e1-9246-c40fd5b2ae42","productName":"Realty Children Savings","providerLogoFileSystemId":"35825ed8-e3f0-4297-a4b1-85ee03aad0eb","amount":"10000.00","interestRate":null,"duration":"3","categoryUrlSlug":"children-savings-account","applicationStatus":"Savings Pending","applicationNumber":"24/FP-0068/NC/1104","allApplicationId":"0e2f3880-5759-4391-ae97-23a1a4571a99","commonPersonalDetailID":null,"customerIdentityId":null,"concurrencyHash":null,"dataSource":"Customer Savings","commonBankAccountDetailSourceId":null,"commonBankAccountDetailIncomingId":null,"commonAddressDetailId":null,"nextOfKinDetailId":"3dfe1584-0905-4940-b4b6-71a46385f73e","campaignID":null,"productType":"Savings"},{"applicationID":"2cca774e-9632-472d-9017-fe32284f9eac","productID":"aadaa410-06b9-43f7-b7a9-f44d4c26ac85","categoryName":"Fixed Deposit Account","customerID":"d45a0445-9bf2-4cf2-aa4c-19c67e5f43dd","dateOfApplication":"2024-03-08T00:00:00","dateCreated":"2024-03-08T14:23:52.403","firstName":"Priscaline","lastName":"Uzor","email":"priscaline@assurdly.com","phone":"+2347086490512","gender":"female","providerName":"Realty Invest Network Solution","providerID":"f2158613-d3ab-47e1-9246-c40fd5b2ae42","productName":"Realty Savings","providerLogoFileSystemId":"35825ed8-e3f0-4297-a4b1-85ee03aad0eb","amount":"598.00","interestRate":"4","duration":"3","categoryUrlSlug":"fixed-deposit-account","applicationStatus":"Savings Pending","applicationNumber":"24/FP-0068/NC/0075","allApplicationId":"f5b744da-c762-4347-8d2d-25c7617668cb","commonPersonalDetailID":"912bc98d-7109-43cd-8089-bf21720d9a7c","customerIdentityId":null,"concurrencyHash":"AA2C878D911A88ECC4DF9120E8C854C7D17A2C074423247685935702D6ABBEAA","dataSource":"Common Applications","commonBankAccountDetailSourceId":"0e8932c4-7f60-4338-adb0-80e7db1009b0","commonBankAccountDetailIncomingId":"0e8932c4-7f60-4338-adb0-80e7db1009b0","commonAddressDetailId":"2643d432-f91a-480c-9014-ef4433f62899","nextOfKinDetailId":"ecc14a61-0320-4bc9-a664-d8c4125f97f7","campaignID":"","productType":"Fixed Deposit"},{"applicationID":"73ab214f-0303-4dac-a117-89bae55faa97","productID":"aadaa410-06b9-43f7-b7a9-f44d4c26ac85","categoryName":"Fixed Deposit Account","customerID":"d45a0445-9bf2-4cf2-aa4c-19c67e5f43dd","dateOfApplication":"2024-03-08T00:00:00","dateCreated":"2024-03-08T16:12:27.34","firstName":"Priscaline","lastName":"Uzor","email":"priscaline@assurdly.com","phone":"+2347086490512","gender":"female","providerName":"Realty Invest Network Solution","providerID":"f2158613-d3ab-47e1-9246-c40fd5b2ae42","productName":"Realty Savings","providerLogoFileSystemId":"35825ed8-e3f0-4297-a4b1-85ee03aad0eb","amount":"984.00","interestRate":"4","duration":"3","categoryUrlSlug":"fixed-deposit-account","applicationStatus":"Savings Pending","applicationNumber":"24/FP-0068/NC/0073","allApplicationId":"b97eef7e-77a5-4716-9b48-8d2f31fe4168","commonPersonalDetailID":"d65cd190-2219-4f00-88c5-8516a3e5f80e","customerIdentityId":null,"concurrencyHash":"83B59ACBDC32A0E5DC22B81BF5F01A65AFC6811890A5596AB710FA188C0987E2","dataSource":"Common Applications","commonBankAccountDetailSourceId":"2399880d-e6c7-41e1-905c-ca7b7d9fb8f6","commonBankAccountDetailIncomingId":"2399880d-e6c7-41e1-905c-ca7b7d9fb8f6","commonAddressDetailId":"1eaf0ce0-47a9-4728-aecf-07bcf090f103","nextOfKinDetailId":"0fc7af87-371b-40b6-8834-4cf528f7786e","campaignID":"","productType":"Fixed Deposit"},{"applicationID":"a387e7d4-c3e5-45cd-a806-e940d3a8683a","productID":"aadaa410-06b9-43f7-b7a9-f44d4c26ac85","categoryName":"Fixed Deposit Account","customerID":"d45a0445-9bf2-4cf2-aa4c-19c67e5f43dd","dateOfApplication":"2024-03-08T00:00:00","dateCreated":"2024-03-08T16:12:53.237","firstName":"Priscaline","lastName":"Uzor","email":"priscaline@assurdly.com","phone":"+2347086490512","gender":"female","providerName":"Realty Invest Network Solution","providerID":"f2158613-d3ab-47e1-9246-c40fd5b2ae42","productName":"Realty Savings","providerLogoFileSystemId":"35825ed8-e3f0-4297-a4b1-85ee03aad0eb","amount":"529.00","interestRate":"4","duration":"3","categoryUrlSlug":"fixed-deposit-account","applicationStatus":"Savings Pending","applicationNumber":"24/FP-0068/NC/0074","allApplicationId":"1ae633a3-5c71-4960-937e-36d151fe25f4","commonPersonalDetailID":"29c4a913-e4f9-46cb-9867-a9579baf990e","customerIdentityId":null,"concurrencyHash":"6F5AEAAAAD3C417BF5EFF73344F66B8EC769A1FEC06A1E1B4581721C936D75A9","dataSource":"Common Applications","commonBankAccountDetailSourceId":"9b8baea8-cd5a-431d-80f1-1471f73fc386","commonBankAccountDetailIncomingId":"9b8baea8-cd5a-431d-80f1-1471f73fc386","commonAddressDetailId":"3415cac7-a2c7-40fd-b249-7e3fc7f946eb","nextOfKinDetailId":"1375cc21-6558-4e1c-9c07-3af59bf098a5","campaignID":"","productType":"Fixed Deposit"},{"applicationID":"a3c066b7-f25b-4373-98ff-7cd10f117493","productID":"aadaa410-06b9-43f7-b7a9-f44d4c26ac85","categoryName":"Fixed Deposit Account","customerID":"d45a0445-9bf2-4cf2-aa4c-19c67e5f43dd","dateOfApplication":"2024-03-08T00:00:00","dateCreated":"2024-03-08T14:26:18.49","firstName":"Priscaline","lastName":"Uzor","email":"priscaline@assurdly.com","phone":"+2347086490512","gender":"female","providerName":"Realty Invest Network Solution","providerID":"f2158613-d3ab-47e1-9246-c40fd5b2ae42","productName":"Realty Savings","providerLogoFileSystemId":"35825ed8-e3f0-4297-a4b1-85ee03aad0eb","amount":"353.00","interestRate":"4","duration":"3","categoryUrlSlug":"fixed-deposit-account","applicationStatus":"Savings Pending","applicationNumber":"24/FP-0068/NC/0076","allApplicationId":"be872209-77b7-4c9a-9775-3e56cbea3828","commonPersonalDetailID":"8e0a094c-33ec-4af3-87a2-6cf425504f07","customerIdentityId":null,"concurrencyHash":"5565DF5745DF616614E47715A6779C38745C78B7E7E0A76EE7D2E2721EEC8B8B","dataSource":"Common Applications","commonBankAccountDetailSourceId":"e957ba86-6182-4ba4-839f-118c21ed9d2b","commonBankAccountDetailIncomingId":"e957ba86-6182-4ba4-839f-118c21ed9d2b","commonAddressDetailId":"069e57c3-023b-4947-a91e-2e6b2e4bc29f","nextOfKinDetailId":"15d162f3-b918-48bd-ac90-3a3c1cc3b668","campaignID":"","productType":"Fixed Deposit"},{"applicationID":"add526a7-1dcd-466b-8319-0c43268da896","productID":"46fd9ca6-f179-4d56-9e45-b50b257a65c2","categoryName":"Children's Savings Account","customerID":"6f0f0344-4c13-4e06-a5df-29cab489c206","dateOfApplication":"2024-03-08T00:00:00","dateCreated":"2024-03-08T14:23:55.133","firstName":"Richard","lastName":"Adibe","email":"adiberichard12@gmail.com","phone":"2348066923517","gender":"male","providerName":"Realty Invest Network Solution","providerID":"f2158613-d3ab-47e1-9246-c40fd5b2ae42","productName":"Realty Children Savings","providerLogoFileSystemId":"35825ed8-e3f0-4297-a4b1-85ee03aad0eb","amount":"10000.00","interestRate":null,"duration":"3","categoryUrlSlug":"children-savings-account","applicationStatus":"Savings Pending","applicationNumber":"24/FP-0068/NC/1102","allApplicationId":"30255503-a96e-43fb-873c-c4f181271e0c","commonPersonalDetailID":null,"customerIdentityId":null,"concurrencyHash":null,"dataSource":"Customer Savings","commonBankAccountDetailSourceId":null,"commonBankAccountDetailIncomingId":null,"commonAddressDetailId":null,"nextOfKinDetailId":"894b8c6f-be2d-4171-bfc5-8ab4ffb937e8","campaignID":null,"productType":"Savings"},{"applicationID":"fa80b170-93f6-4112-8d2c-40171fa0b3af","productID":"8d762146-b3f6-4f43-9879-7c335bc39747","categoryName":"Personal Savings Account","customerID":"a947d407-ebd2-4edd-a259-b2f0b36f075f","dateOfApplication":"2024-03-07T00:00:00","dateCreated":"2024-03-07T15:16:47.823","firstName":"Mary","lastName":"Francis","email":"mary+1@assurdly.com","phone":"+2349167135103","gender":"male","providerName":"Realty Invest Network Solution","providerID":"f2158613-d3ab-47e1-9246-c40fd5b2ae42","productName":"Daily Savings","providerLogoFileSystemId":"35825ed8-e3f0-4297-a4b1-85ee03aad0eb","amount":"1000.00","interestRate":null,"duration":"6","categoryUrlSlug":"personal-savings-account","applicationStatus":"Savings Pending","applicationNumber":"24/FP-0068/NC/1101","allApplicationId":"bd1679a2-ed27-4191-94e5-f455121662d4","commonPersonalDetailID":null,"customerIdentityId":null,"concurrencyHash":null,"dataSource":"Customer Savings","commonBankAccountDetailSourceId":null,"commonBankAccountDetailIncomingId":null,"commonAddressDetailId":null,"nextOfKinDetailId":null,"campaignID":null,"productType":"Savings"},{"applicationID":"0da86d77-44de-4393-a555-c4c8b97a35a0","productID":"aadaa410-06b9-43f7-b7a9-f44d4c26ac85","categoryName":"Fixed Deposit Account","customerID":"d45a0445-9bf2-4cf2-aa4c-19c67e5f43dd","dateOfApplication":"2024-03-06T00:00:00","dateCreated":"2024-03-06T07:24:43.83","firstName":"Priscaline","lastName":"Uzor","email":"priscaline@assurdly.com","phone":"+2347086490512","gender":"female","providerName":"Realty Invest Network Solution","providerID":"f2158613-d3ab-47e1-9246-c40fd5b2ae42","productName":"Realty Savings","providerLogoFileSystemId":"35825ed8-e3f0-4297-a4b1-85ee03aad0eb","amount":"595.00","interestRate":"4","duration":"3","categoryUrlSlug":"fixed-deposit-account","applicationStatus":"Cancelled","applicationNumber":"24/FP-0068/NC/0075","allApplicationId":"136b4551-2a3f-4e55-a97c-e203ec03219e","commonPersonalDetailID":"6dfd5d83-6955-4183-9fc5-4eb11075eb2f","customerIdentityId":null,"concurrencyHash":"D6AFABFCB2BD8B2B9CAA8A523109622778CFE9737B551BDA1853CA29139045F1","dataSource":"Common Applications","commonBankAccountDetailSourceId":"d98b9938-e644-41ff-8d4b-811981dacbfb","commonBankAccountDetailIncomingId":"d98b9938-e644-41ff-8d4b-811981dacbfb","commonAddressDetailId":"737322f1-ec7b-4466-bd2b-49f71c1e8317","nextOfKinDetailId":"05700d66-7491-408a-8b70-ebed23160a31","campaignID":"","productType":"Fixed Deposit"},{"applicationID":"0fc1293c-f7b9-4d9b-b921-88a6eeceb54f","productID":"46fd9ca6-f179-4d56-9e45-b50b257a65c2","categoryName":"Children's Savings Account","customerID":"6f0f0344-4c13-4e06-a5df-29cab489c206","dateOfApplication":"2024-03-06T00:00:00","dateCreated":"2024-03-06T05:04:38.017","firstName":"Richard","lastName":"Adibe","email":"adiberichard12@gmail.com","phone":"2348066923517","gender":"male","providerName":"Realty Invest Network Solution","providerID":"f2158613-d3ab-47e1-9246-c40fd5b2ae42","productName":"Realty Children Savings","providerLogoFileSystemId":"35825ed8-e3f0-4297-a4b1-85ee03aad0eb","amount":"10000.00","interestRate":null,"duration":"3","categoryUrlSlug":"children-savings-account","applicationStatus":"Savings Pending","applicationNumber":"24/FP-0068/NC/1085","allApplicationId":"ea802d7e-2d11-475d-97fd-aef6f3ecdfda","commonPersonalDetailID":null,"customerIdentityId":null,"concurrencyHash":null,"dataSource":"Customer Savings","commonBankAccountDetailSourceId":null,"commonBankAccountDetailIncomingId":null,"commonAddressDetailId":null,"nextOfKinDetailId":"5103f0ce-6896-4b93-9405-ddafe5fa75a8","campaignID":null,"productType":"Savings"},{"applicationID":"12fe152a-6650-43b2-a253-f4e04be832d9","productID":"aadaa410-06b9-43f7-b7a9-f44d4c26ac85","categoryName":"Fixed Deposit Account","customerID":"d45a0445-9bf2-4cf2-aa4c-19c67e5f43dd","dateOfApplication":"2024-03-06T00:00:00","dateCreated":"2024-03-06T05:10:06.9","firstName":"Priscaline","lastName":"Uzor","email":"priscaline@assurdly.com","phone":"+2347086490512","gender":"female","providerName":"Realty Invest Network Solution","providerID":"f2158613-d3ab-47e1-9246-c40fd5b2ae42","productName":"Realty Savings","providerLogoFileSystemId":"35825ed8-e3f0-4297-a4b1-85ee03aad0eb","amount":"784.00","interestRate":"4","duration":"3","categoryUrlSlug":"fixed-deposit-account","applicationStatus":"Cancelled","applicationNumber":"24/FP-0068/NC/0074","allApplicationId":"823b83ae-7748-4831-a23c-67c71626b4e3","commonPersonalDetailID":"ff386011-0083-40c5-9466-006bada82e04","customerIdentityId":null,"concurrencyHash":"A2E0FC086DF39598DF3EB3392326B8D2BC28277AFFB41A2AA43BE0C13D375CFA","dataSource":"Common Applications","commonBankAccountDetailSourceId":"720a407d-1c5f-45b4-82de-60f2318bd1f4","commonBankAccountDetailIncomingId":"720a407d-1c5f-45b4-82de-60f2318bd1f4","commonAddressDetailId":"5230c40d-719f-4e93-8033-7eee3dcdccb0","nextOfKinDetailId":"be2bc015-3476-49a8-b827-6034b6b6c744","campaignID":"","productType":"Fixed Deposit"}]],"details":null},"errors":null,"statusCode":200}