{"isSuccess":true,"message":"Success","data":{"successMessage":"Records retrieved successfully","errorMessage":null,"responseCode":200,"total":1698,"totalPages":170,"rowsPerPage":10,"pageItemsCount":10,"pageNumber":1,"queryString":"","list":[[{"applicationID":"4dac28cc-7f72-40bc-b237-c6252b538564","productID":"aadaa410-06b9-43f7-b7a9-f44d4c26ac85","categoryName":"Fixed Deposit Account","customerID":"d45a0445-9bf2-4cf2-aa4c-19c67e5f43dd","dateOfApplication":"2024-03-11T00:00:00","dateCreated":"2024-03-11T12:07:14.363","firstName":"Priscaline","lastName":"Uzor","email":"priscaline@assurdly.com","phone":"+2347086490512","gender":"female","providerName":"Realty Invest Network Solution","providerID":"f2158613-d3ab-47e1-9246-c40fd5b2ae42","productName":"Realty Savings","providerLogoFileSystemId":"35825ed8-e3f0-4297-a4b1-85ee03aad0eb","amount":"448.00","interestRate":"4","duration":"3","categoryUrlSlug":"fixed-deposit-account","applicationStatus":"Savings Pending","applicationNumber":"24/FP-0068/NC/0073","allApplicationId":"f37f3578-d95b-49a0-91fd-71d5186bdfff","commonPersonalDetailID":"ea8d5b23-4751-4b7e-822a-ed615655a306","customerIdentityId":null,"concurrencyHash":"BADC25228DE20F1F2806E796FFEBCF9300D6C6D04AD1DB9C7EB0247686AC86FD","dataSource":"Common Applications","commonBankAccountDetailSourceId":"1f345371-dce0-4797-8d53-31443604b5f7","commonBankAccountDetailIncomingId":"1f345371-dce0-4797-8d53-31443604b5f7","commonAddressDetailId":"0d679b60-55b0-4c3b-824e-d23d1cef9878","nextOfKinDetailId":"75f36331-32ba-48e3-9b9c-f265e06137ba","campaignID":"","productType":"Fixed Deposit"},{"applicationID":"4e16cb8e-d88e-42f0-9bc2-edb93ccf5726","productID":"46fd9ca6-f179-4d56-9e45-b50b257a65c2","categoryName":"Children's Savings Account","customerID":"6f0f0344-4c13-4e06-a5df-29cab489c206","dateOfApplication":"2024-03-11T00:00:00","dateCreated":"2024-03-11T12:07:16.08","firstName":"Richard","lastName":"Adibe","email":"adiberichard12@gmail.com","phone":"2348066923517","gender":"male","providerName":"Realty Invest Network Solution","providerID":"f2158613-d3ab-47e1-9246-c40fd5b2ae42","productName":"Realty Children Savings","providerLogoFileSystemId":"35825ed8-e3f0-4297-a4b1-85ee03aad0eb","amount":"10000.00","interestRate":null,"duration":"3","categoryUrlSlug":"children-savings-account","applicationStatus":"Savings Pending","applicationNumber":"24/FP-0068/NC/1112","allApplicationId":"e2f5410e-3056-4beb-b9cd-5559115d25ec","commonPersonalDetailID":null,"customerIdentityId":null,"concurrencyHash":null,"dataSource":"Customer Savings","commonBankAccountDetailSourceId":null,"commonBankAccountDetailIncomingId":null,"commonAddressDetailId":null,"nextOfKinDetailId":"d35a16cc-ac59-4f11-b87d-66b0c24ffc93","campaignID":null,"productType":"Savings"},{"applicationID":"4feddd23-09f0-4cec-9d51-9f3e60d87f48","productID":"aadaa410-06b9-43f7-b7a9-f44d4c26ac85","categoryName":"Fixed Deposit Account","customerID":"d45a0445-9bf2-4cf2-aa4c-19c67e5f43dd","dateOfApplication":"2024-03-11T00:00:00","dateCreated":"2024-03-11T12:12:11.763","firstName":"Priscaline","lastName":"Uzor","email":"priscaline@assurdly.com","phone":"+2347086490512","gender":"female","providerName":"Realty Invest Network Solution","providerID":"f2158613-d3ab-47e1-9246-c40fd5b2ae42","productName":"Realty Savings","providerLogoFileSystemId":"35825ed8-e3f0-4297-a4b1-85ee03aad0eb","amount":"256.00","interestRate":"4","duration":"3","categoryUrlSlug":"fixed-deposit-account","applicationStatus":"Savings Pending","applicationNumber":"24/FP-0068/NC/0076","allApplicationId":"a309db5f-3f39-4ca0-bd71-26a74d23ea7c","commonPersonalDetailID":"e766587b-0ef2-491b-a344-1440c25523ce","customerIdentityId":null,"concurrencyHash":"DC93D0239EA454DF9503798CBCEAD9CFEAF0D18B0DCF39015FC3EDB5BA792E13","dataSource":"Common Applications","commonBankAccountDetailSourceId":"0d4b6147-2efb-4ea4-b6ba-5a8ed40c183a","commonBankAccountDetailIncomingId":"0d4b6147-2efb-4ea4-b6ba-5a8ed40c183a","commonAddressDetailId":"78cf69b0-416d-434c-943f-bcd7efc6ea12","nextOfKinDetailId":"6335315a-cfe4-4576-812d-c1d4d57530ed","campaignID":"","productType":"Fixed Deposit"},{"applicationID":"6f9455f8-1f58-448f-8c27-04a9388722a3","productID":"46fd9ca6-f179-4d56-9e45-b50b257a65c2","categoryName":"Children's Savings Account","customerID":"6f0f0344-4c13-4e06-a5df-29cab489c206","dateOfApplication":"2024-03-11T00:00:00","dateCreated":"2024-03-11T12:11:51.697","firstName":"Richard","lastName":"Adibe","email":"adiberichard12@gmail.com","phone":"2348066923517","gender":"male","providerName":"Realty Invest Network Solution","providerID":"f2158613-d3ab-47e1-9246-c40fd5b2ae42","productName":"Realty Children Savings","providerLogoFileSystemId":"35825ed8-e3f0-4297-a4b1-85ee03aad0eb","amount":"10000.00","interestRate":null,"duration":"3","categoryUrlSlug":"children-savings-account","applicationStatus":"Savings Pending","applicationNumber":"24/FP-0068/NC/1114","allApplicationId":"9816e0fb-ee1d-4ce9-8933-bc605e99c81c","commonPersonalDetailID":null,"customerIdentityId":null,"concurrencyHash":null,"dataSource":"Customer Savings","commonBankAccountDetailSourceId":null,"commonBankAccountDetailIncomingId":null,"commonAddressDetailId":null,"nextOfKinDetailId":"9778806c-ea97-464b-96a7-fffc4fdba77c","campaignID":null,"productType":"Savings"},{"applicationID":"a0c76522-af0d-402a-b2d1-6ee06b4da554","productID":"46fd9ca6-f179-4d56-9e45-b50b257a65c2","categoryName":"Children's Savings Account","customerID":"6f0f0344-4c13-4e06-a5df-29cab489c206","dateOfApplication":"2024-03-11T00:00:00","dateCreated":"2024-03-11T12:12:29.72","firstName":"Richard","lastName":"Adibe","email":"adiberichard12@gmail.com","phone":"2348066923517","gender":"male","providerName":"Realty Invest Network Solution","providerID":"f2158613-d3ab-47e1-9246-c40fd5b2ae42","productName":"Realty Children Savings","providerLogoFileSystemId":"35825ed8-e3f0-4297-a4b1-85ee03aad0eb","amount":"10000.00","interestRate":null,"duration":"3","categoryUrlSlug":"children-savings-account","applicationStatus":"Savings Pending","applicationNumber":"24/FP-0068/NC/1116","allApplicationId":"39294d14-5727-4d4b-8e37-99da366658c8","commonPersonalDetailID":null,"customerIdentityId":null,"concurrencyHash":null,"dataSource":"Customer Savings","commonBankAccountDetailSourceId":null,"commonBankAccountDetailIncomingId":null,"commonAddressDetailId":null,"nextOfKinDetailId":"cf059195-5ec1-4f2e-953f-083f75610190","campaignID":null,"productType":"Savings"},{"applicationID":"b77eba64-2499-4333-944b-aba12e701985","productID":"aadaa410-06b9-43f7-b7a9-f44d4c26ac85","categoryName":"Fixed Deposit Account","customerID":"d45a0445-9bf2-4cf2-aa4c-19c67e5f43dd","dateOfApplication":"2024-03-11T00:00:00","dateCreated":"2024-03-11T12:11:50.28","firstName":"Priscaline","lastName":"Uzor","email":"priscaline@assurdly.com","phone":"+2347086490512","gender":"female","providerName":"Realty Invest Network Solution","providerID":"f2158613-d3ab-47e1-9246-c40fd5b2ae42","productName":"Realty Savings","providerLogoFileSystemId":"35825ed8-e3f0-4297-a4b1-85ee03aad0eb","amount":"0.00","interestRate":"4","duration":"3","categoryUrlSlug":"fixed-deposit-account","applicationStatus":"Savings Pending","applicationNumber":"24/FP-0068/NC/0075","allApplicationId":"0ec8046f-b17f-4073-b50d-e35d097f011f","commonPersonalDetailID":"3a08df68-a6f1-4d8e-9392-cebaa7f60018","customerIdentityId":null,"concurrencyHash":"BB790AC817421A35C8A61FF338E93E6DB905E530BBAA247B5F3059603C6F5809","dataSource":"Common Applications","commonBankAccountDetailSourceId":"3822f348-aabe-4971-b854-152828b1bfb9","commonBankAccountDetailIncomingId":"3822f348-aabe-4971-b854-152828b1bfb9","commonAddressDetailId":"403419ad-8c71-4d10-9e26-88f60c754eb4","nextOfKinDetailId":"ba91505f-e49d-4e13-accb-e81f22f5c580","campaignID":"","productType":"Fixed Deposit"},{"applicationID":"ccd77484-6fa8-4b9c-a1de-143bbe5afc29","productID":"aadaa410-06b9-43f7-b7a9-f44d4c26ac85","categoryName":"Fixed Deposit Account","customerID":"d45a0445-9bf2-4cf2-aa4c-19c67e5f43dd","dateOfApplication":"2024-03-11T00:00:00","dateCreated":"2024-03-11T12:12:48.68","firstName":"Priscaline","lastName":"Uzor","email":"priscaline@assurdly.com","phone":"+2347086490512","gender":"female","providerName":"Realty Invest Network Solution","providerID":"f2158613-d3ab-47e1-9246-c40fd5b2ae42","productName":"Realty Savings","providerLogoFileSystemId":"35825ed8-e3f0-4297-a4b1-85ee03aad0eb","amount":"122.00","interestRate":"4","duration":"3","categoryUrlSlug":"fixed-deposit-account","applicationStatus":"Savings Pending","applicationNumber":"24/FP-0068/NC/0078","allApplicationId":"55c66d3c-3ef6-4afe-8e32-499f60863d3a","commonPersonalDetailID":"aa449ed5-6dc9-4955-90dd-b3d85c49c5ff","customerIdentityId":null,"concurrencyHash":"30575433AB5DC3A10E21DADF925E0A982B16C3EA3A51D304D04E6BA7F099C47B","dataSource":"Common Applications","commonBankAccountDetailSourceId":"b9556f91-c2c7-40db-879f-fafe916526c4","commonBankAccountDetailIncomingId":"b9556f91-c2c7-40db-879f-fafe916526c4","commonAddressDetailId":"d80d2198-def6-4d4b-a22d-fffa0c48462e","nextOfKinDetailId":"8f0da69e-8f0f-42d9-b4d3-addbd591b945","campaignID":"","productType":"Fixed Deposit"},{"applicationID":"ea0071f5-bae7-43ed-819c-aadce3fc0bd1","productID":"aadaa410-06b9-43f7-b7a9-f44d4c26ac85","categoryName":"Fixed Deposit Account","customerID":"d45a0445-9bf2-4cf2-aa4c-19c67e5f43dd","dateOfApplication":"2024-03-11T00:00:00","dateCreated":"2024-03-11T12:10:08.15","firstName":"Priscaline","lastName":"Uzor","email":"priscaline@assurdly.com","phone":"+2347086490512","gender":"female","providerName":"Realty Invest Network Solution","providerID":"f2158613-d3ab-47e1-9246-c40fd5b2ae42","productName":"Realty Savings","providerLogoFileSystemId":"35825ed8-e3f0-4297-a4b1-85ee03aad0eb","amount":"681.00","interestRate":"4","duration":"3","categoryUrlSlug":"fixed-deposit-account","applicationStatus":"Savings Pending","applicationNumber":"24/FP-0068/NC/0074","allApplicationId":"3ab91f9f-3811-486b-a432-49188fee6d3c","commonPersonalDetailID":"5c693ef0-b56c-485c-993a-8fa5080e0240","customerIdentityId":null,"concurrencyHash":"2BF14CB998907EDD37E7E12CFDD58F12EB1C57C9079D41F7303063005793778B","dataSource":"Common Applications","commonBankAccountDetailSourceId":"32251a10-e1d4-4a49-8882-38f80c14094c","commonBankAccountDetailIncomingId":"32251a10-e1d4-4a49-8882-38f80c14094c","commonAddressDetailId":"bd01067e-d4fa-4fd7-8811-c7af0299c61d","nextOfKinDetailId":"1805697d-2c09-4882-a638-20290c5e8d92","campaignID":"","productType":"Fixed Deposit"},{"applicationID":"fb52d65c-849f-4051-810c-e0f600c71acb","productID":"aadaa410-06b9-43f7-b7a9-f44d4c26ac85","categoryName":"Fixed Deposit Account","customerID":"d45a0445-9bf2-4cf2-aa4c-19c67e5f43dd","dateOfApplication":"2024-03-11T00:00:00","dateCreated":"2024-03-11T12:12:26.37","firstName":"Priscaline","lastName":"Uzor","email":"priscaline@assurdly.com","phone":"+2347086490512","gender":"female","providerName":"Realty Invest Network Solution","providerID":"f2158613-d3ab-47e1-9246-c40fd5b2ae42","productName":"Realty Savings","providerLogoFileSystemId":"35825ed8-e3f0-4297-a4b1-85ee03aad0eb","amount":"579.00","interestRate":"4","duration":"3","categoryUrlSlug":"fixed-deposit-account","applicationStatus":"Savings Pending","applicationNumber":"24/FP-0068/NC/0077","allApplicationId":"cdd48d2f-961d-49a6-8517-45986e0e73e2","commonPersonalDetailID":"b61e8cf5-9e26-4c27-a0c1-88f49d1b0e1c","customerIdentityId":null,"concurrencyHash":"98DB458F2C0B3B9CF4E8E4E6945795696532D1E1FC9881D0031677121D490A67","dataSource":"Common Applications","commonBankAccountDetailSourceId":"ca1ca955-c821-4eb9-9846-72a9bab398cd","commonBankAccountDetailIncomingId":"ca1ca955-c821-4eb9-9846-72a9bab398cd","commonAddressDetailId":"e868a563-1b8a-4019-8906-7a7251f7351d","nextOfKinDetailId":"c817c53b-76ae-4111-adfd-1b2cdf380b40","campaignID":"","productType":"Fixed Deposit"},{"applicationID":"00f0d7f9-7517-4567-ab34-6d1ec2656d13","productID":"46fd9ca6-f179-4d56-9e45-b50b257a65c2","categoryName":"Children's Savings Account","customerID":"6f0f0344-4c13-4e06-a5df-29cab489c206","dateOfApplication":"2024-03-08T00:00:00","dateCreated":"2024-03-08T18:16:13.1","firstName":"Richard","lastName":"Adibe","email":"adiberichard12@gmail.com","phone":"2348066923517","gender":"male","providerName":"Realty Invest Network Solution","providerID":"f2158613-d3ab-47e1-9246-c40fd5b2ae42","productName":"Realty Children Savings","providerLogoFileSystemId":"35825ed8-e3f0-4297-a4b1-85ee03aad0eb","amount":"10000.00","interestRate":null,"duration":"3","categoryUrlSlug":"children-savings-account","applicationStatus":"Savings Pending","applicationNumber":"24/FP-0068/NC/1110","allApplicationId":"27fbde88-f857-4bac-b36c-9128cbedd814","commonPersonalDetailID":null,"customerIdentityId":null,"concurrencyHash":null,"dataSource":"Customer Savings","commonBankAccountDetailSourceId":null,"commonBankAccountDetailIncomingId":null,"commonAddressDetailId":null,"nextOfKinDetailId":"096a18d5-88c5-41c8-9210-06cf1fba4cd3","campaignID":null,"productType":"Savings"}]],"details":null},"errors":null,"statusCode":200}