{"isSuccess":true,"message":"Success","data":{"successMessage":"Records retrieved successfully","errorMessage":null,"responseCode":200,"total":1677,"totalPages":168,"rowsPerPage":10,"pageItemsCount":10,"pageNumber":1,"queryString":"","list":[[{"applicationID":"2cca774e-9632-472d-9017-fe32284f9eac","productID":"aadaa410-06b9-43f7-b7a9-f44d4c26ac85","categoryName":"Fixed Deposit Account","customerID":"d45a0445-9bf2-4cf2-aa4c-19c67e5f43dd","dateOfApplication":"2024-03-08T00:00:00","dateCreated":"2024-03-08T14:23:52.403","firstName":"Priscaline","lastName":"Uzor","email":"priscaline@assurdly.com","phone":"+2347086490512","gender":"female","providerName":"Realty Invest Network Solution","providerID":"f2158613-d3ab-47e1-9246-c40fd5b2ae42","productName":"Realty Savings","providerLogoFileSystemId":"35825ed8-e3f0-4297-a4b1-85ee03aad0eb","amount":"598.00","interestRate":"4","duration":"3","categoryUrlSlug":"fixed-deposit-account","applicationStatus":"Savings Pending","applicationNumber":"24/FP-0068/NC/0075","allApplicationId":"f5b744da-c762-4347-8d2d-25c7617668cb","commonPersonalDetailID":"912bc98d-7109-43cd-8089-bf21720d9a7c","customerIdentityId":null,"concurrencyHash":"AA2C878D911A88ECC4DF9120E8C854C7D17A2C074423247685935702D6ABBEAA","dataSource":"Common Applications","commonBankAccountDetailSourceId":"0e8932c4-7f60-4338-adb0-80e7db1009b0","commonBankAccountDetailIncomingId":"0e8932c4-7f60-4338-adb0-80e7db1009b0","commonAddressDetailId":"2643d432-f91a-480c-9014-ef4433f62899","nextOfKinDetailId":"ecc14a61-0320-4bc9-a664-d8c4125f97f7","campaignID":"","productType":"Fixed Deposit"},{"applicationID":"a3c066b7-f25b-4373-98ff-7cd10f117493","productID":"aadaa410-06b9-43f7-b7a9-f44d4c26ac85","categoryName":"Fixed Deposit Account","customerID":"d45a0445-9bf2-4cf2-aa4c-19c67e5f43dd","dateOfApplication":"2024-03-08T00:00:00","dateCreated":"2024-03-08T14:26:18.49","firstName":"Priscaline","lastName":"Uzor","email":"priscaline@assurdly.com","phone":"+2347086490512","gender":"female","providerName":"Realty Invest Network Solution","providerID":"f2158613-d3ab-47e1-9246-c40fd5b2ae42","productName":"Realty Savings","providerLogoFileSystemId":"35825ed8-e3f0-4297-a4b1-85ee03aad0eb","amount":"353.00","interestRate":"4","duration":"3","categoryUrlSlug":"fixed-deposit-account","applicationStatus":"Savings Pending","applicationNumber":"24/FP-0068/NC/0076","allApplicationId":"be872209-77b7-4c9a-9775-3e56cbea3828","commonPersonalDetailID":"8e0a094c-33ec-4af3-87a2-6cf425504f07","customerIdentityId":null,"concurrencyHash":"5565DF5745DF616614E47715A6779C38745C78B7E7E0A76EE7D2E2721EEC8B8B","dataSource":"Common Applications","commonBankAccountDetailSourceId":"e957ba86-6182-4ba4-839f-118c21ed9d2b","commonBankAccountDetailIncomingId":"e957ba86-6182-4ba4-839f-118c21ed9d2b","commonAddressDetailId":"069e57c3-023b-4947-a91e-2e6b2e4bc29f","nextOfKinDetailId":"15d162f3-b918-48bd-ac90-3a3c1cc3b668","campaignID":"","productType":"Fixed Deposit"},{"applicationID":"add526a7-1dcd-466b-8319-0c43268da896","productID":"46fd9ca6-f179-4d56-9e45-b50b257a65c2","categoryName":"Children's Savings Account","customerID":"6f0f0344-4c13-4e06-a5df-29cab489c206","dateOfApplication":"2024-03-08T00:00:00","dateCreated":"2024-03-08T14:23:55.133","firstName":"Richard","lastName":"Adibe","email":"adiberichard12@gmail.com","phone":"2348066923517","gender":"male","providerName":"Realty Invest Network Solution","providerID":"f2158613-d3ab-47e1-9246-c40fd5b2ae42","productName":"Realty Children Savings","providerLogoFileSystemId":"35825ed8-e3f0-4297-a4b1-85ee03aad0eb","amount":"10000.00","interestRate":null,"duration":"3","categoryUrlSlug":"children-savings-account","applicationStatus":"Savings Pending","applicationNumber":"24/FP-0068/NC/1102","allApplicationId":"30255503-a96e-43fb-873c-c4f181271e0c","commonPersonalDetailID":null,"customerIdentityId":null,"concurrencyHash":null,"dataSource":"Customer Savings","commonBankAccountDetailSourceId":null,"commonBankAccountDetailIncomingId":null,"commonAddressDetailId":null,"nextOfKinDetailId":"894b8c6f-be2d-4171-bfc5-8ab4ffb937e8","campaignID":null,"productType":"Savings"},{"applicationID":"fa80b170-93f6-4112-8d2c-40171fa0b3af","productID":"8d762146-b3f6-4f43-9879-7c335bc39747","categoryName":"Personal Savings Account","customerID":"a947d407-ebd2-4edd-a259-b2f0b36f075f","dateOfApplication":"2024-03-07T00:00:00","dateCreated":"2024-03-07T15:16:47.823","firstName":"Mary","lastName":"Francis","email":"mary+1@assurdly.com","phone":"+2349167135103","gender":"male","providerName":"Realty Invest Network Solution","providerID":"f2158613-d3ab-47e1-9246-c40fd5b2ae42","productName":"Daily Savings","providerLogoFileSystemId":"35825ed8-e3f0-4297-a4b1-85ee03aad0eb","amount":"1000.00","interestRate":null,"duration":"6","categoryUrlSlug":"personal-savings-account","applicationStatus":"Savings Pending","applicationNumber":"24/FP-0068/NC/1101","allApplicationId":"bd1679a2-ed27-4191-94e5-f455121662d4","commonPersonalDetailID":null,"customerIdentityId":null,"concurrencyHash":null,"dataSource":"Customer Savings","commonBankAccountDetailSourceId":null,"commonBankAccountDetailIncomingId":null,"commonAddressDetailId":null,"nextOfKinDetailId":null,"campaignID":null,"productType":"Savings"},{"applicationID":"0da86d77-44de-4393-a555-c4c8b97a35a0","productID":"aadaa410-06b9-43f7-b7a9-f44d4c26ac85","categoryName":"Fixed Deposit Account","customerID":"d45a0445-9bf2-4cf2-aa4c-19c67e5f43dd","dateOfApplication":"2024-03-06T00:00:00","dateCreated":"2024-03-06T07:24:43.83","firstName":"Priscaline","lastName":"Uzor","email":"priscaline@assurdly.com","phone":"+2347086490512","gender":"female","providerName":"Realty Invest Network Solution","providerID":"f2158613-d3ab-47e1-9246-c40fd5b2ae42","productName":"Realty Savings","providerLogoFileSystemId":"35825ed8-e3f0-4297-a4b1-85ee03aad0eb","amount":"595.00","interestRate":"4","duration":"3","categoryUrlSlug":"fixed-deposit-account","applicationStatus":"Cancelled","applicationNumber":"24/FP-0068/NC/0075","allApplicationId":"136b4551-2a3f-4e55-a97c-e203ec03219e","commonPersonalDetailID":"6dfd5d83-6955-4183-9fc5-4eb11075eb2f","customerIdentityId":null,"concurrencyHash":"D6AFABFCB2BD8B2B9CAA8A523109622778CFE9737B551BDA1853CA29139045F1","dataSource":"Common Applications","commonBankAccountDetailSourceId":"d98b9938-e644-41ff-8d4b-811981dacbfb","commonBankAccountDetailIncomingId":"d98b9938-e644-41ff-8d4b-811981dacbfb","commonAddressDetailId":"737322f1-ec7b-4466-bd2b-49f71c1e8317","nextOfKinDetailId":"05700d66-7491-408a-8b70-ebed23160a31","campaignID":"","productType":"Fixed Deposit"},{"applicationID":"0fc1293c-f7b9-4d9b-b921-88a6eeceb54f","productID":"46fd9ca6-f179-4d56-9e45-b50b257a65c2","categoryName":"Children's Savings Account","customerID":"6f0f0344-4c13-4e06-a5df-29cab489c206","dateOfApplication":"2024-03-06T00:00:00","dateCreated":"2024-03-06T05:04:38.017","firstName":"Richard","lastName":"Adibe","email":"adiberichard12@gmail.com","phone":"2348066923517","gender":"male","providerName":"Realty Invest Network Solution","providerID":"f2158613-d3ab-47e1-9246-c40fd5b2ae42","productName":"Realty Children Savings","providerLogoFileSystemId":"35825ed8-e3f0-4297-a4b1-85ee03aad0eb","amount":"10000.00","interestRate":null,"duration":"3","categoryUrlSlug":"children-savings-account","applicationStatus":"Savings Pending","applicationNumber":"24/FP-0068/NC/1085","allApplicationId":"ea802d7e-2d11-475d-97fd-aef6f3ecdfda","commonPersonalDetailID":null,"customerIdentityId":null,"concurrencyHash":null,"dataSource":"Customer Savings","commonBankAccountDetailSourceId":null,"commonBankAccountDetailIncomingId":null,"commonAddressDetailId":null,"nextOfKinDetailId":"5103f0ce-6896-4b93-9405-ddafe5fa75a8","campaignID":null,"productType":"Savings"},{"applicationID":"12fe152a-6650-43b2-a253-f4e04be832d9","productID":"aadaa410-06b9-43f7-b7a9-f44d4c26ac85","categoryName":"Fixed Deposit Account","customerID":"d45a0445-9bf2-4cf2-aa4c-19c67e5f43dd","dateOfApplication":"2024-03-06T00:00:00","dateCreated":"2024-03-06T05:10:06.9","firstName":"Priscaline","lastName":"Uzor","email":"priscaline@assurdly.com","phone":"+2347086490512","gender":"female","providerName":"Realty Invest Network Solution","providerID":"f2158613-d3ab-47e1-9246-c40fd5b2ae42","productName":"Realty Savings","providerLogoFileSystemId":"35825ed8-e3f0-4297-a4b1-85ee03aad0eb","amount":"784.00","interestRate":"4","duration":"3","categoryUrlSlug":"fixed-deposit-account","applicationStatus":"Cancelled","applicationNumber":"24/FP-0068/NC/0074","allApplicationId":"823b83ae-7748-4831-a23c-67c71626b4e3","commonPersonalDetailID":"ff386011-0083-40c5-9466-006bada82e04","customerIdentityId":null,"concurrencyHash":"A2E0FC086DF39598DF3EB3392326B8D2BC28277AFFB41A2AA43BE0C13D375CFA","dataSource":"Common Applications","commonBankAccountDetailSourceId":"720a407d-1c5f-45b4-82de-60f2318bd1f4","commonBankAccountDetailIncomingId":"720a407d-1c5f-45b4-82de-60f2318bd1f4","commonAddressDetailId":"5230c40d-719f-4e93-8033-7eee3dcdccb0","nextOfKinDetailId":"be2bc015-3476-49a8-b827-6034b6b6c744","campaignID":"","productType":"Fixed Deposit"},{"applicationID":"160a707b-5cb7-418a-8c78-0107b0c9a894","productID":"aadaa410-06b9-43f7-b7a9-f44d4c26ac85","categoryName":"Fixed Deposit Account","customerID":"d45a0445-9bf2-4cf2-aa4c-19c67e5f43dd","dateOfApplication":"2024-03-06T00:00:00","dateCreated":"2024-03-06T05:07:46.133","firstName":"Priscaline","lastName":"Uzor","email":"priscaline@assurdly.com","phone":"+2347086490512","gender":"female","providerName":"Realty Invest Network Solution","providerID":"f2158613-d3ab-47e1-9246-c40fd5b2ae42","productName":"Realty Savings","providerLogoFileSystemId":"35825ed8-e3f0-4297-a4b1-85ee03aad0eb","amount":"310.00","interestRate":"4","duration":"3","categoryUrlSlug":"fixed-deposit-account","applicationStatus":"Savings Pending","applicationNumber":"24/FP-0068/NC/0083","allApplicationId":"50e2920b-048d-4c5e-a800-bb3874391c85","commonPersonalDetailID":"2a9bf803-1fab-40ea-9fa9-9c1c6a84a2e6","customerIdentityId":null,"concurrencyHash":"9CE5C9D21F5A06F29A18A176AA5F91094BB4A69D04C4DEDD91F8807AD024BAAF","dataSource":"Common Applications","commonBankAccountDetailSourceId":"c0b4e64d-ff05-44a8-b164-20ac835a3f81","commonBankAccountDetailIncomingId":"c0b4e64d-ff05-44a8-b164-20ac835a3f81","commonAddressDetailId":"4c255acf-ef20-49a9-a6c2-2e6fab3fbc45","nextOfKinDetailId":"ebd2151b-2c2f-46e4-8f23-d4973ecfc577","campaignID":"","productType":"Fixed Deposit"},{"applicationID":"18a7930b-6bf1-4257-9a68-7e1fd3f04d6f","productID":"aadaa410-06b9-43f7-b7a9-f44d4c26ac85","categoryName":"Fixed Deposit Account","customerID":"d45a0445-9bf2-4cf2-aa4c-19c67e5f43dd","dateOfApplication":"2024-03-06T00:00:00","dateCreated":"2024-03-06T05:04:35.957","firstName":"Priscaline","lastName":"Uzor","email":"priscaline@assurdly.com","phone":"+2347086490512","gender":"female","providerName":"Realty Invest Network Solution","providerID":"f2158613-d3ab-47e1-9246-c40fd5b2ae42","productName":"Realty Savings","providerLogoFileSystemId":"35825ed8-e3f0-4297-a4b1-85ee03aad0eb","amount":"543.00","interestRate":"4","duration":"3","categoryUrlSlug":"fixed-deposit-account","applicationStatus":"Savings Pending","applicationNumber":"24/FP-0068/NC/0080","allApplicationId":"4650213c-199c-4571-b4c4-cf9a4cfccba1","commonPersonalDetailID":"3a516d34-6aef-46fb-8104-4a6480d6bc04","customerIdentityId":null,"concurrencyHash":"8D71F3E22F8F4986FFDC2051B6FD3947057CE438599824A78DAD54481C24D5C8","dataSource":"Common Applications","commonBankAccountDetailSourceId":"fcb02583-e4e1-429e-b520-bc567dd88c2c","commonBankAccountDetailIncomingId":"fcb02583-e4e1-429e-b520-bc567dd88c2c","commonAddressDetailId":"4e7d6f95-1ddd-486c-a8f7-873f8e705b6a","nextOfKinDetailId":"c5cea992-ecb9-4c17-97c1-8582661c6f8f","campaignID":"","productType":"Fixed Deposit"},{"applicationID":"2806dfc5-6c50-40fa-ba48-0af7fa4515a4","productID":"aadaa410-06b9-43f7-b7a9-f44d4c26ac85","categoryName":"Fixed Deposit Account","customerID":"d45a0445-9bf2-4cf2-aa4c-19c67e5f43dd","dateOfApplication":"2024-03-06T00:00:00","dateCreated":"2024-03-06T05:25:11.07","firstName":"Priscaline","lastName":"Uzor","email":"priscaline@assurdly.com","phone":"+2347086490512","gender":"female","providerName":"Realty Invest Network Solution","providerID":"f2158613-d3ab-47e1-9246-c40fd5b2ae42","productName":"Realty Savings","providerLogoFileSystemId":"35825ed8-e3f0-4297-a4b1-85ee03aad0eb","amount":"55.00","interestRate":"4","duration":"3","categoryUrlSlug":"fixed-deposit-account","applicationStatus":"Savings Pending","applicationNumber":"24/FP-0068/NC/0073","allApplicationId":"8c4e8742-6cc2-4102-9c23-f082d24e272f","commonPersonalDetailID":"fb5450be-c2ef-4aea-8eef-ab55edef33cc","customerIdentityId":null,"concurrencyHash":"26816247F0A532316C4ADA9758487F946BE47B8C04E378398390F3CF5D54C5E4","dataSource":"Common Applications","commonBankAccountDetailSourceId":"37a1e150-bd22-46d4-9d7b-9db1281d4a32","commonBankAccountDetailIncomingId":"37a1e150-bd22-46d4-9d7b-9db1281d4a32","commonAddressDetailId":"d5708dd5-66d1-4182-bbfe-0f70d82a85e3","nextOfKinDetailId":"37263e2f-b9b2-451f-a55d-78949ce6908b","campaignID":"","productType":"Fixed Deposit"}]],"details":null},"errors":null,"statusCode":200}