{"isSuccess":true,"message":"Success","data":{"successMessage":"Records retrieved successfully","errorMessage":null,"responseCode":200,"total":1689,"totalPages":169,"rowsPerPage":10,"pageItemsCount":10,"pageNumber":1,"queryString":"","list":[[{"applicationID":"00f0d7f9-7517-4567-ab34-6d1ec2656d13","productID":"46fd9ca6-f179-4d56-9e45-b50b257a65c2","categoryName":"Children's Savings Account","customerID":"6f0f0344-4c13-4e06-a5df-29cab489c206","dateOfApplication":"2024-03-08T00:00:00","dateCreated":"2024-03-08T18:16:13.1","firstName":"Richard","lastName":"Adibe","email":"adiberichard12@gmail.com","phone":"2348066923517","gender":"male","providerName":"Realty Invest Network Solution","providerID":"f2158613-d3ab-47e1-9246-c40fd5b2ae42","productName":"Realty Children Savings","providerLogoFileSystemId":"35825ed8-e3f0-4297-a4b1-85ee03aad0eb","amount":"10000.00","interestRate":null,"duration":"3","categoryUrlSlug":"children-savings-account","applicationStatus":"Savings Pending","applicationNumber":"24/FP-0068/NC/1110","allApplicationId":"27fbde88-f857-4bac-b36c-9128cbedd814","commonPersonalDetailID":null,"customerIdentityId":null,"concurrencyHash":null,"dataSource":"Customer Savings","commonBankAccountDetailSourceId":null,"commonBankAccountDetailIncomingId":null,"commonAddressDetailId":null,"nextOfKinDetailId":"096a18d5-88c5-41c8-9210-06cf1fba4cd3","campaignID":null,"productType":"Savings"},{"applicationID":"03acd3c1-9ba8-428f-9d4e-2d1441187708","productID":"46fd9ca6-f179-4d56-9e45-b50b257a65c2","categoryName":"Children's Savings Account","customerID":"6f0f0344-4c13-4e06-a5df-29cab489c206","dateOfApplication":"2024-03-08T00:00:00","dateCreated":"2024-03-08T16:12:29.117","firstName":"Richard","lastName":"Adibe","email":"adiberichard12@gmail.com","phone":"2348066923517","gender":"male","providerName":"Realty Invest Network Solution","providerID":"f2158613-d3ab-47e1-9246-c40fd5b2ae42","productName":"Realty Children Savings","providerLogoFileSystemId":"35825ed8-e3f0-4297-a4b1-85ee03aad0eb","amount":"10000.00","interestRate":null,"duration":"3","categoryUrlSlug":"children-savings-account","applicationStatus":"Savings Pending","applicationNumber":"24/FP-0068/NC/1104","allApplicationId":"0e2f3880-5759-4391-ae97-23a1a4571a99","commonPersonalDetailID":null,"customerIdentityId":null,"concurrencyHash":null,"dataSource":"Customer Savings","commonBankAccountDetailSourceId":null,"commonBankAccountDetailIncomingId":null,"commonAddressDetailId":null,"nextOfKinDetailId":"3dfe1584-0905-4940-b4b6-71a46385f73e","campaignID":null,"productType":"Savings"},{"applicationID":"2c5aac7c-cda8-4c50-9e79-be1650162827","productID":"aadaa410-06b9-43f7-b7a9-f44d4c26ac85","categoryName":"Fixed Deposit Account","customerID":"d45a0445-9bf2-4cf2-aa4c-19c67e5f43dd","dateOfApplication":"2024-03-08T00:00:00","dateCreated":"2024-03-08T16:30:46.24","firstName":"Priscaline","lastName":"Uzor","email":"priscaline@assurdly.com","phone":"+2347086490512","gender":"female","providerName":"Realty Invest Network Solution","providerID":"f2158613-d3ab-47e1-9246-c40fd5b2ae42","productName":"Realty Savings","providerLogoFileSystemId":"35825ed8-e3f0-4297-a4b1-85ee03aad0eb","amount":"496.00","interestRate":"4","duration":"3","categoryUrlSlug":"fixed-deposit-account","applicationStatus":"Savings Pending","applicationNumber":"24/FP-0068/NC/0075","allApplicationId":"183379b8-0b29-494e-9eb3-f50a03b0b624","commonPersonalDetailID":"beddbb98-8c78-4f91-9586-638807506d0f","customerIdentityId":null,"concurrencyHash":"83013073689CB0B328DB4F7E13DC12AC09B2FA25A23E55750E0B469476790CC5","dataSource":"Common Applications","commonBankAccountDetailSourceId":"620b3cc2-7fa7-45d4-ab9d-daef90f25327","commonBankAccountDetailIncomingId":"620b3cc2-7fa7-45d4-ab9d-daef90f25327","commonAddressDetailId":"460a7493-3402-4302-af58-aac301713071","nextOfKinDetailId":"eb3b1693-397d-4358-8d2b-0345dc501638","campaignID":"","productType":"Fixed Deposit"},{"applicationID":"2cca774e-9632-472d-9017-fe32284f9eac","productID":"aadaa410-06b9-43f7-b7a9-f44d4c26ac85","categoryName":"Fixed Deposit Account","customerID":"d45a0445-9bf2-4cf2-aa4c-19c67e5f43dd","dateOfApplication":"2024-03-08T00:00:00","dateCreated":"2024-03-08T14:23:52.403","firstName":"Priscaline","lastName":"Uzor","email":"priscaline@assurdly.com","phone":"+2347086490512","gender":"female","providerName":"Realty Invest Network Solution","providerID":"f2158613-d3ab-47e1-9246-c40fd5b2ae42","productName":"Realty Savings","providerLogoFileSystemId":"35825ed8-e3f0-4297-a4b1-85ee03aad0eb","amount":"598.00","interestRate":"4","duration":"3","categoryUrlSlug":"fixed-deposit-account","applicationStatus":"Savings Pending","applicationNumber":"24/FP-0068/NC/0075","allApplicationId":"f5b744da-c762-4347-8d2d-25c7617668cb","commonPersonalDetailID":"912bc98d-7109-43cd-8089-bf21720d9a7c","customerIdentityId":null,"concurrencyHash":"AA2C878D911A88ECC4DF9120E8C854C7D17A2C074423247685935702D6ABBEAA","dataSource":"Common Applications","commonBankAccountDetailSourceId":"0e8932c4-7f60-4338-adb0-80e7db1009b0","commonBankAccountDetailIncomingId":"0e8932c4-7f60-4338-adb0-80e7db1009b0","commonAddressDetailId":"2643d432-f91a-480c-9014-ef4433f62899","nextOfKinDetailId":"ecc14a61-0320-4bc9-a664-d8c4125f97f7","campaignID":"","productType":"Fixed Deposit"},{"applicationID":"2f8b6db7-98b0-4eb5-93b2-0e907014bdc5","productID":"aadaa410-06b9-43f7-b7a9-f44d4c26ac85","categoryName":"Fixed Deposit Account","customerID":"d45a0445-9bf2-4cf2-aa4c-19c67e5f43dd","dateOfApplication":"2024-03-08T00:00:00","dateCreated":"2024-03-08T16:26:10.113","firstName":"Priscaline","lastName":"Uzor","email":"priscaline@assurdly.com","phone":"+2347086490512","gender":"female","providerName":"Realty Invest Network Solution","providerID":"f2158613-d3ab-47e1-9246-c40fd5b2ae42","productName":"Realty Savings","providerLogoFileSystemId":"35825ed8-e3f0-4297-a4b1-85ee03aad0eb","amount":"879.00","interestRate":"4","duration":"3","categoryUrlSlug":"fixed-deposit-account","applicationStatus":"Savings Pending","applicationNumber":"24/FP-0068/NC/0074","allApplicationId":"f3b1b8df-cc10-47db-96aa-10ece0c522f7","commonPersonalDetailID":"a90a01ba-53a7-47f7-bd99-2a8104bff9df","customerIdentityId":null,"concurrencyHash":"FBAD4EB40461EEB9D3090F24E20ABE74DE7B5A5E32DAC6EFA548F513692A5F08","dataSource":"Common Applications","commonBankAccountDetailSourceId":"d0e68ed8-bfe6-48a8-b016-7c45ee210869","commonBankAccountDetailIncomingId":"d0e68ed8-bfe6-48a8-b016-7c45ee210869","commonAddressDetailId":"340e697e-0bb3-461a-904c-9d59e338de91","nextOfKinDetailId":"0d740248-3eeb-45b9-927a-91b5e6391c70","campaignID":"","productType":"Fixed Deposit"},{"applicationID":"3444dcd8-10b9-49af-95e5-868eabd9f07a","productID":"aadaa410-06b9-43f7-b7a9-f44d4c26ac85","categoryName":"Fixed Deposit Account","customerID":"d45a0445-9bf2-4cf2-aa4c-19c67e5f43dd","dateOfApplication":"2024-03-08T00:00:00","dateCreated":"2024-03-08T16:31:08.083","firstName":"Priscaline","lastName":"Uzor","email":"priscaline@assurdly.com","phone":"+2347086490512","gender":"female","providerName":"Realty Invest Network Solution","providerID":"f2158613-d3ab-47e1-9246-c40fd5b2ae42","productName":"Realty Savings","providerLogoFileSystemId":"35825ed8-e3f0-4297-a4b1-85ee03aad0eb","amount":"323.00","interestRate":"4","duration":"3","categoryUrlSlug":"fixed-deposit-account","applicationStatus":"Savings Pending","applicationNumber":"24/FP-0068/NC/0076","allApplicationId":"8fdb5ec8-db29-4e1b-9a0f-f02a75f4705c","commonPersonalDetailID":"f687a752-4d81-49ab-8f12-1740c4ba00ef","customerIdentityId":null,"concurrencyHash":"3208A0DE25E126CCFDF9AC29E959F4CD7774C5C0BBD9289889E6884C296BC0BC","dataSource":"Common Applications","commonBankAccountDetailSourceId":"5b97dfeb-fb8b-466a-9e07-5a35865a7922","commonBankAccountDetailIncomingId":"5b97dfeb-fb8b-466a-9e07-5a35865a7922","commonAddressDetailId":"c352f32c-5257-49d0-9c56-ba94274683c8","nextOfKinDetailId":"fea3ed00-9328-4f11-b6ba-fb127b16ce4e","campaignID":"","productType":"Fixed Deposit"},{"applicationID":"6b846cf4-9a31-4803-8138-a599fcd4a3ad","productID":"aadaa410-06b9-43f7-b7a9-f44d4c26ac85","categoryName":"Fixed Deposit Account","customerID":"d45a0445-9bf2-4cf2-aa4c-19c67e5f43dd","dateOfApplication":"2024-03-08T00:00:00","dateCreated":"2024-03-08T16:25:49.527","firstName":"Priscaline","lastName":"Uzor","email":"priscaline@assurdly.com","phone":"+2347086490512","gender":"female","providerName":"Realty Invest Network Solution","providerID":"f2158613-d3ab-47e1-9246-c40fd5b2ae42","productName":"Realty Savings","providerLogoFileSystemId":"35825ed8-e3f0-4297-a4b1-85ee03aad0eb","amount":"6.00","interestRate":"4","duration":"3","categoryUrlSlug":"fixed-deposit-account","applicationStatus":"Savings Pending","applicationNumber":"24/FP-0068/NC/0073","allApplicationId":"a8ced2bf-2b65-4df3-bd6b-c4ebe9991ee3","commonPersonalDetailID":"08e1898a-0328-4bf7-9698-8616a5c4b495","customerIdentityId":null,"concurrencyHash":"FD9341F5D68AE0864A7CE42C973EB023A0C894C5368AE2457E13D25A0756D83C","dataSource":"Common Applications","commonBankAccountDetailSourceId":"3071a7be-f052-4f31-9c4c-41aaa758caeb","commonBankAccountDetailIncomingId":"3071a7be-f052-4f31-9c4c-41aaa758caeb","commonAddressDetailId":"8912a8ca-122c-491d-ab30-8749a867b874","nextOfKinDetailId":"4be80047-6aea-498e-b079-f7a931cca298","campaignID":"","productType":"Fixed Deposit"},{"applicationID":"6e52d0fd-fca9-4980-af1d-cb095918d968","productID":"46fd9ca6-f179-4d56-9e45-b50b257a65c2","categoryName":"Children's Savings Account","customerID":"6f0f0344-4c13-4e06-a5df-29cab489c206","dateOfApplication":"2024-03-08T00:00:00","dateCreated":"2024-03-08T16:30:47.813","firstName":"Richard","lastName":"Adibe","email":"adiberichard12@gmail.com","phone":"2348066923517","gender":"male","providerName":"Realty Invest Network Solution","providerID":"f2158613-d3ab-47e1-9246-c40fd5b2ae42","productName":"Realty Children Savings","providerLogoFileSystemId":"35825ed8-e3f0-4297-a4b1-85ee03aad0eb","amount":"10000.00","interestRate":null,"duration":"3","categoryUrlSlug":"children-savings-account","applicationStatus":"Savings Pending","applicationNumber":"24/FP-0068/NC/1108","allApplicationId":"4b3c0376-ab8a-44de-8036-0a39cd0138cd","commonPersonalDetailID":null,"customerIdentityId":null,"concurrencyHash":null,"dataSource":"Customer Savings","commonBankAccountDetailSourceId":null,"commonBankAccountDetailIncomingId":null,"commonAddressDetailId":null,"nextOfKinDetailId":"2ba99b62-c0de-4313-a17b-7743fcb3aec1","campaignID":null,"productType":"Savings"},{"applicationID":"73ab214f-0303-4dac-a117-89bae55faa97","productID":"aadaa410-06b9-43f7-b7a9-f44d4c26ac85","categoryName":"Fixed Deposit Account","customerID":"d45a0445-9bf2-4cf2-aa4c-19c67e5f43dd","dateOfApplication":"2024-03-08T00:00:00","dateCreated":"2024-03-08T16:12:27.34","firstName":"Priscaline","lastName":"Uzor","email":"priscaline@assurdly.com","phone":"+2347086490512","gender":"female","providerName":"Realty Invest Network Solution","providerID":"f2158613-d3ab-47e1-9246-c40fd5b2ae42","productName":"Realty Savings","providerLogoFileSystemId":"35825ed8-e3f0-4297-a4b1-85ee03aad0eb","amount":"984.00","interestRate":"4","duration":"3","categoryUrlSlug":"fixed-deposit-account","applicationStatus":"Savings Pending","applicationNumber":"24/FP-0068/NC/0073","allApplicationId":"b97eef7e-77a5-4716-9b48-8d2f31fe4168","commonPersonalDetailID":"d65cd190-2219-4f00-88c5-8516a3e5f80e","customerIdentityId":null,"concurrencyHash":"83B59ACBDC32A0E5DC22B81BF5F01A65AFC6811890A5596AB710FA188C0987E2","dataSource":"Common Applications","commonBankAccountDetailSourceId":"2399880d-e6c7-41e1-905c-ca7b7d9fb8f6","commonBankAccountDetailIncomingId":"2399880d-e6c7-41e1-905c-ca7b7d9fb8f6","commonAddressDetailId":"1eaf0ce0-47a9-4728-aecf-07bcf090f103","nextOfKinDetailId":"0fc7af87-371b-40b6-8834-4cf528f7786e","campaignID":"","productType":"Fixed Deposit"},{"applicationID":"832f72fb-8163-4ae2-8dea-70f0e4222aaa","productID":"aadaa410-06b9-43f7-b7a9-f44d4c26ac85","categoryName":"Fixed Deposit Account","customerID":"d45a0445-9bf2-4cf2-aa4c-19c67e5f43dd","dateOfApplication":"2024-03-08T00:00:00","dateCreated":"2024-03-08T18:16:11","firstName":"Priscaline","lastName":"Uzor","email":"priscaline@assurdly.com","phone":"+2347086490512","gender":"female","providerName":"Realty Invest Network Solution","providerID":"f2158613-d3ab-47e1-9246-c40fd5b2ae42","productName":"Realty Savings","providerLogoFileSystemId":"35825ed8-e3f0-4297-a4b1-85ee03aad0eb","amount":"993.00","interestRate":"4","duration":"3","categoryUrlSlug":"fixed-deposit-account","applicationStatus":"Savings Pending","applicationNumber":"24/FP-0068/NC/0073","allApplicationId":"d789b35d-5ee7-4e8a-a68b-10ad9b7921b6","commonPersonalDetailID":"dc82b81d-7dba-41bf-b992-03e196846dd3","customerIdentityId":null,"concurrencyHash":"20BB09F879FA7F6020DBA38451265043A6BF00D645E3DEE037D4090B7A8FD39D","dataSource":"Common Applications","commonBankAccountDetailSourceId":"b6dbff03-b121-4f1c-8fbf-07dde5badadb","commonBankAccountDetailIncomingId":"b6dbff03-b121-4f1c-8fbf-07dde5badadb","commonAddressDetailId":"bae2d6af-2082-43a9-9145-1e01e8f6cae9","nextOfKinDetailId":"a4848bc4-cabe-495e-ab57-8de44e412928","campaignID":"","productType":"Fixed Deposit"}]],"details":null},"errors":null,"statusCode":200}