{"isSuccess":true,"message":"Success","data":{"successMessage":"Records retrieved successfully","errorMessage":null,"responseCode":200,"total":1659,"totalPages":166,"rowsPerPage":10,"pageItemsCount":10,"pageNumber":1,"queryString":"","list":[[{"applicationID":"0fc1293c-f7b9-4d9b-b921-88a6eeceb54f","productID":"46fd9ca6-f179-4d56-9e45-b50b257a65c2","categoryName":"Children's Savings Account","customerID":"6f0f0344-4c13-4e06-a5df-29cab489c206","dateOfApplication":"2024-03-06T00:00:00","dateCreated":"2024-03-06T05:04:38.017","firstName":"Richard","lastName":"Adibe","email":"adiberichard12@gmail.com","phone":"2348066923517","gender":"male","providerName":"Realty Invest Network Solution","providerID":"f2158613-d3ab-47e1-9246-c40fd5b2ae42","productName":"Realty Children Savings","providerLogoFileSystemId":"35825ed8-e3f0-4297-a4b1-85ee03aad0eb","amount":"10000.00","interestRate":null,"duration":"3","categoryUrlSlug":"children-savings-account","applicationStatus":"Savings Pending","applicationNumber":"24/FP-0068/NC/1085","allApplicationId":"ea802d7e-2d11-475d-97fd-aef6f3ecdfda","commonPersonalDetailID":null,"customerIdentityId":null,"concurrencyHash":null,"dataSource":"Customer Savings","commonBankAccountDetailSourceId":null,"commonBankAccountDetailIncomingId":null,"commonAddressDetailId":null,"nextOfKinDetailId":"5103f0ce-6896-4b93-9405-ddafe5fa75a8","campaignID":null,"productType":"Savings"},{"applicationID":"12fe152a-6650-43b2-a253-f4e04be832d9","productID":"aadaa410-06b9-43f7-b7a9-f44d4c26ac85","categoryName":"Fixed Deposit Account","customerID":"d45a0445-9bf2-4cf2-aa4c-19c67e5f43dd","dateOfApplication":"2024-03-06T00:00:00","dateCreated":"2024-03-06T05:10:06.9","firstName":"Priscaline","lastName":"Uzor","email":"priscaline@assurdly.com","phone":"+2347086490512","gender":"female","providerName":"Realty Invest Network Solution","providerID":"f2158613-d3ab-47e1-9246-c40fd5b2ae42","productName":"Realty Savings","providerLogoFileSystemId":"35825ed8-e3f0-4297-a4b1-85ee03aad0eb","amount":"784.00","interestRate":"4","duration":"3","categoryUrlSlug":"fixed-deposit-account","applicationStatus":"Savings Pending","applicationNumber":"24/FP-0068/NC/0074","allApplicationId":"823b83ae-7748-4831-a23c-67c71626b4e3","commonPersonalDetailID":"ff386011-0083-40c5-9466-006bada82e04","customerIdentityId":null,"concurrencyHash":"A2E0FC086DF39598DF3EB3392326B8D2BC28277AFFB41A2AA43BE0C13D375CFA","dataSource":"Common Applications","commonBankAccountDetailSourceId":"720a407d-1c5f-45b4-82de-60f2318bd1f4","commonBankAccountDetailIncomingId":"720a407d-1c5f-45b4-82de-60f2318bd1f4","commonAddressDetailId":"5230c40d-719f-4e93-8033-7eee3dcdccb0","nextOfKinDetailId":"be2bc015-3476-49a8-b827-6034b6b6c744","campaignID":"","productType":"Fixed Deposit"},{"applicationID":"160a707b-5cb7-418a-8c78-0107b0c9a894","productID":"aadaa410-06b9-43f7-b7a9-f44d4c26ac85","categoryName":"Fixed Deposit Account","customerID":"d45a0445-9bf2-4cf2-aa4c-19c67e5f43dd","dateOfApplication":"2024-03-06T00:00:00","dateCreated":"2024-03-06T05:07:46.133","firstName":"Priscaline","lastName":"Uzor","email":"priscaline@assurdly.com","phone":"+2347086490512","gender":"female","providerName":"Realty Invest Network Solution","providerID":"f2158613-d3ab-47e1-9246-c40fd5b2ae42","productName":"Realty Savings","providerLogoFileSystemId":"35825ed8-e3f0-4297-a4b1-85ee03aad0eb","amount":"310.00","interestRate":"4","duration":"3","categoryUrlSlug":"fixed-deposit-account","applicationStatus":"Savings Pending","applicationNumber":"24/FP-0068/NC/0083","allApplicationId":"50e2920b-048d-4c5e-a800-bb3874391c85","commonPersonalDetailID":"2a9bf803-1fab-40ea-9fa9-9c1c6a84a2e6","customerIdentityId":null,"concurrencyHash":"9CE5C9D21F5A06F29A18A176AA5F91094BB4A69D04C4DEDD91F8807AD024BAAF","dataSource":"Common Applications","commonBankAccountDetailSourceId":"c0b4e64d-ff05-44a8-b164-20ac835a3f81","commonBankAccountDetailIncomingId":"c0b4e64d-ff05-44a8-b164-20ac835a3f81","commonAddressDetailId":"4c255acf-ef20-49a9-a6c2-2e6fab3fbc45","nextOfKinDetailId":"ebd2151b-2c2f-46e4-8f23-d4973ecfc577","campaignID":"","productType":"Fixed Deposit"},{"applicationID":"18a7930b-6bf1-4257-9a68-7e1fd3f04d6f","productID":"aadaa410-06b9-43f7-b7a9-f44d4c26ac85","categoryName":"Fixed Deposit Account","customerID":"d45a0445-9bf2-4cf2-aa4c-19c67e5f43dd","dateOfApplication":"2024-03-06T00:00:00","dateCreated":"2024-03-06T05:04:35.957","firstName":"Priscaline","lastName":"Uzor","email":"priscaline@assurdly.com","phone":"+2347086490512","gender":"female","providerName":"Realty Invest Network Solution","providerID":"f2158613-d3ab-47e1-9246-c40fd5b2ae42","productName":"Realty Savings","providerLogoFileSystemId":"35825ed8-e3f0-4297-a4b1-85ee03aad0eb","amount":"543.00","interestRate":"4","duration":"3","categoryUrlSlug":"fixed-deposit-account","applicationStatus":"Savings Pending","applicationNumber":"24/FP-0068/NC/0080","allApplicationId":"4650213c-199c-4571-b4c4-cf9a4cfccba1","commonPersonalDetailID":"3a516d34-6aef-46fb-8104-4a6480d6bc04","customerIdentityId":null,"concurrencyHash":"8D71F3E22F8F4986FFDC2051B6FD3947057CE438599824A78DAD54481C24D5C8","dataSource":"Common Applications","commonBankAccountDetailSourceId":"fcb02583-e4e1-429e-b520-bc567dd88c2c","commonBankAccountDetailIncomingId":"fcb02583-e4e1-429e-b520-bc567dd88c2c","commonAddressDetailId":"4e7d6f95-1ddd-486c-a8f7-873f8e705b6a","nextOfKinDetailId":"c5cea992-ecb9-4c17-97c1-8582661c6f8f","campaignID":"","productType":"Fixed Deposit"},{"applicationID":"2db441dd-a8ca-464f-a120-981f27065458","productID":"46fd9ca6-f179-4d56-9e45-b50b257a65c2","categoryName":"Children's Savings Account","customerID":"6f0f0344-4c13-4e06-a5df-29cab489c206","dateOfApplication":"2024-03-06T00:00:00","dateCreated":"2024-03-06T05:07:31.08","firstName":"Richard","lastName":"Adibe","email":"adiberichard12@gmail.com","phone":"2348066923517","gender":"male","providerName":"Realty Invest Network Solution","providerID":"f2158613-d3ab-47e1-9246-c40fd5b2ae42","productName":"Realty Children Savings","providerLogoFileSystemId":"35825ed8-e3f0-4297-a4b1-85ee03aad0eb","amount":"10000.00","interestRate":null,"duration":"3","categoryUrlSlug":"children-savings-account","applicationStatus":"Savings Pending","applicationNumber":"24/FP-0068/NC/1087","allApplicationId":"2d2aed18-fc79-4438-b96e-55ccbcce8267","commonPersonalDetailID":null,"customerIdentityId":null,"concurrencyHash":null,"dataSource":"Customer Savings","commonBankAccountDetailSourceId":null,"commonBankAccountDetailIncomingId":null,"commonAddressDetailId":null,"nextOfKinDetailId":"e9f6d37e-f317-4e99-bfb0-a4651a93a123","campaignID":null,"productType":"Savings"},{"applicationID":"2fb469fd-64c9-49e0-9ef9-9a944e9639c3","productID":"aadaa410-06b9-43f7-b7a9-f44d4c26ac85","categoryName":"Fixed Deposit Account","customerID":"d45a0445-9bf2-4cf2-aa4c-19c67e5f43dd","dateOfApplication":"2024-03-06T00:00:00","dateCreated":"2024-03-06T05:09:49.93","firstName":"Priscaline","lastName":"Uzor","email":"priscaline@assurdly.com","phone":"+2347086490512","gender":"female","providerName":"Realty Invest Network Solution","providerID":"f2158613-d3ab-47e1-9246-c40fd5b2ae42","productName":"Realty Savings","providerLogoFileSystemId":"35825ed8-e3f0-4297-a4b1-85ee03aad0eb","amount":"608.00","interestRate":"4","duration":"3","categoryUrlSlug":"fixed-deposit-account","applicationStatus":"Savings Pending","applicationNumber":"24/FP-0068/NC/0073","allApplicationId":"bf897347-36df-46e7-8e56-62e37a1fce7c","commonPersonalDetailID":"0489f67e-3078-4288-8ec2-acfd965dbf7e","customerIdentityId":null,"concurrencyHash":"7EB0966E5147478DC347A6A487E5F1C1F5885DAE8961A673BA938F66DB984A6D","dataSource":"Common Applications","commonBankAccountDetailSourceId":"0c5634f1-bd10-4ad1-bbe5-c5a513aa28ae","commonBankAccountDetailIncomingId":"0c5634f1-bd10-4ad1-bbe5-c5a513aa28ae","commonAddressDetailId":"dd255223-0231-44d2-b28e-53c130b7aa12","nextOfKinDetailId":"c6b29446-f1fc-46f7-bb70-5a3d7e2173ac","campaignID":"","productType":"Fixed Deposit"},{"applicationID":"90cffe47-7f15-482b-9e70-6f661e158c7e","productID":"46fd9ca6-f179-4d56-9e45-b50b257a65c2","categoryName":"Children's Savings Account","customerID":"6f0f0344-4c13-4e06-a5df-29cab489c206","dateOfApplication":"2024-03-06T00:00:00","dateCreated":"2024-03-06T05:09:51.16","firstName":"Richard","lastName":"Adibe","email":"adiberichard12@gmail.com","phone":"2348066923517","gender":"male","providerName":"Realty Invest Network Solution","providerID":"f2158613-d3ab-47e1-9246-c40fd5b2ae42","productName":"Realty Children Savings","providerLogoFileSystemId":"35825ed8-e3f0-4297-a4b1-85ee03aad0eb","amount":"10000.00","interestRate":null,"duration":"3","categoryUrlSlug":"children-savings-account","applicationStatus":"Savings Pending","applicationNumber":"24/FP-0068/NC/1089","allApplicationId":"c2491b91-d870-45a6-a5f0-a5b5d7293d4c","commonPersonalDetailID":null,"customerIdentityId":null,"concurrencyHash":null,"dataSource":"Customer Savings","commonBankAccountDetailSourceId":null,"commonBankAccountDetailIncomingId":null,"commonAddressDetailId":null,"nextOfKinDetailId":"290575c1-5fb8-4e66-8378-a69a5ebedb8d","campaignID":null,"productType":"Savings"},{"applicationID":"9b9d7ec4-5245-468e-b92c-a46d0d553e04","productID":"aadaa410-06b9-43f7-b7a9-f44d4c26ac85","categoryName":"Fixed Deposit Account","customerID":"d45a0445-9bf2-4cf2-aa4c-19c67e5f43dd","dateOfApplication":"2024-03-06T00:00:00","dateCreated":"2024-03-06T05:07:29.91","firstName":"Priscaline","lastName":"Uzor","email":"priscaline@assurdly.com","phone":"+2347086490512","gender":"female","providerName":"Realty Invest Network Solution","providerID":"f2158613-d3ab-47e1-9246-c40fd5b2ae42","productName":"Realty Savings","providerLogoFileSystemId":"35825ed8-e3f0-4297-a4b1-85ee03aad0eb","amount":"641.00","interestRate":"4","duration":"3","categoryUrlSlug":"fixed-deposit-account","applicationStatus":"Savings Pending","applicationNumber":"24/FP-0068/NC/0082","allApplicationId":"e116b438-806d-48d2-a8e2-1c5e15168eab","commonPersonalDetailID":"cac03ede-8ae3-40a6-acce-515e910ca5f8","customerIdentityId":null,"concurrencyHash":"73F847AFF698D09DF9692B702E2FEF4DEB47BC3DBD2850EB2679E483F6A8B5EE","dataSource":"Common Applications","commonBankAccountDetailSourceId":"bda7ad9b-7e81-4521-8c7c-516f9402b2b5","commonBankAccountDetailIncomingId":"bda7ad9b-7e81-4521-8c7c-516f9402b2b5","commonAddressDetailId":"163d1da8-19b2-4b87-b000-1ea09436ee8a","nextOfKinDetailId":"eebe61b1-94c8-4894-b7eb-ced9e8a84a20","campaignID":"","productType":"Fixed Deposit"},{"applicationID":"ff829fe5-3fc8-440f-a7ae-131266704a3d","productID":"aadaa410-06b9-43f7-b7a9-f44d4c26ac85","categoryName":"Fixed Deposit Account","customerID":"d45a0445-9bf2-4cf2-aa4c-19c67e5f43dd","dateOfApplication":"2024-03-06T00:00:00","dateCreated":"2024-03-06T05:06:48.667","firstName":"Priscaline","lastName":"Uzor","email":"priscaline@assurdly.com","phone":"+2347086490512","gender":"female","providerName":"Realty Invest Network Solution","providerID":"f2158613-d3ab-47e1-9246-c40fd5b2ae42","productName":"Realty Savings","providerLogoFileSystemId":"35825ed8-e3f0-4297-a4b1-85ee03aad0eb","amount":"924.00","interestRate":"4","duration":"3","categoryUrlSlug":"fixed-deposit-account","applicationStatus":"Savings Pending","applicationNumber":"24/FP-0068/NC/0081","allApplicationId":"a5145e51-f5c7-4d48-a210-51fbc26d67ef","commonPersonalDetailID":"574678aa-fe91-4854-accf-a24c79ce769b","customerIdentityId":null,"concurrencyHash":"B4779C08F7C65B6F63B7A45C9187BF32E4E4D07A5D0E6427EA0D8EF7998EB9B2","dataSource":"Common Applications","commonBankAccountDetailSourceId":"e91c0abc-9e3a-432d-a561-622795daaa14","commonBankAccountDetailIncomingId":"e91c0abc-9e3a-432d-a561-622795daaa14","commonAddressDetailId":"bb49027a-71ec-448b-9f2e-7f346f419f3c","nextOfKinDetailId":"daaf17df-f910-47de-8d92-6df57273457b","campaignID":"","productType":"Fixed Deposit"},{"applicationID":"00f349a0-ea05-48de-a5d3-b59568c1e32d","productID":"46fd9ca6-f179-4d56-9e45-b50b257a65c2","categoryName":"Children's Savings Account","customerID":"6f0f0344-4c13-4e06-a5df-29cab489c206","dateOfApplication":"2024-03-04T00:00:00","dateCreated":"2024-03-04T08:39:52.147","firstName":"Richard","lastName":"Adibe","email":"adiberichard12@gmail.com","phone":"2348066923517","gender":"male","providerName":"Realty Invest Network Solution","providerID":"f2158613-d3ab-47e1-9246-c40fd5b2ae42","productName":"Realty Children Savings","providerLogoFileSystemId":"35825ed8-e3f0-4297-a4b1-85ee03aad0eb","amount":"10000.00","interestRate":null,"duration":"3","categoryUrlSlug":"children-savings-account","applicationStatus":"Savings Pending","applicationNumber":"24/FP-0068/NC/1081","allApplicationId":"f79fcada-7832-49b3-a27c-d25f9c87a1c5","commonPersonalDetailID":null,"customerIdentityId":null,"concurrencyHash":null,"dataSource":"Customer Savings","commonBankAccountDetailSourceId":null,"commonBankAccountDetailIncomingId":null,"commonAddressDetailId":null,"nextOfKinDetailId":"fe1b7556-3d68-43e4-9d5e-8aafe16e4235","campaignID":null,"productType":"Savings"}]],"details":null},"errors":null,"statusCode":200}