{"isSuccess":true,"message":"Success","data":{"successMessage":"Records retrieved successfully","errorMessage":null,"responseCode":200,"total":50,"totalPages":4,"rowsPerPage":15,"pageItemsCount":15,"pageNumber":1,"queryString":"","list":[[{"applicationID":"5091ae9a-5dca-4d6a-940a-757668994c3b","productID":"aadaa410-06b9-43f7-b7a9-f44d4c26ac85","categoryName":"Fixed Deposit Account","customerID":"d45a0445-9bf2-4cf2-aa4c-19c67e5f43dd","dateOfApplication":"2024-02-22T00:00:00","dateCreated":"2024-02-22T09:42:09.533","firstName":"Priscaline","lastName":"Uzor","email":"priscaline@assurdly.com","phone":"+2347086490512","gender":"female","providerName":"Realty Invest Network Solution","providerID":"f2158613-d3ab-47e1-9246-c40fd5b2ae42","productName":"Realty Savings","providerLogoFileSystemId":"35825ed8-e3f0-4297-a4b1-85ee03aad0eb","amount":"479.00","interestRate":"4","duration":"3","categoryUrlSlug":"fixed-deposit-account","applicationStatus":"Savings Pending","applicationNumber":"24/FP-0068/NC/0103","allApplicationId":"7777e13a-8835-4eaa-9212-24207b494b2b","commonPersonalDetailID":"180910f3-1ab9-441e-8d89-1227f5ed2ce2","customerIdentityId":null,"concurrencyHash":"A85FF14AB3BCE7E25A2F1880EFC8E60A8DF8335B6F3463AC76EE5FB5F6F45063","dataSource":"Common Applications","commonBankAccountDetailSourceId":"fe7483cd-70b4-4602-9861-0b914090a191","commonBankAccountDetailIncomingId":"fe7483cd-70b4-4602-9861-0b914090a191","commonAddressDetailId":"f413c844-a82e-4df6-b54f-8058ce3bbd7b","nextOfKinDetailId":"9419a800-eaac-411f-ae22-b1929460a2bd","campaignID":"","productType":"Fixed Deposit"},{"applicationID":"2292703c-2f1c-40e8-8c2f-1b94208884db","productID":"aadaa410-06b9-43f7-b7a9-f44d4c26ac85","categoryName":"Fixed Deposit Account","customerID":"d45a0445-9bf2-4cf2-aa4c-19c67e5f43dd","dateOfApplication":"2024-02-20T00:00:00","dateCreated":"2024-02-20T18:43:58.663","firstName":"Priscaline","lastName":"Uzor","email":"priscaline@assurdly.com","phone":"+2347086490512","gender":"female","providerName":"Realty Invest Network Solution","providerID":"f2158613-d3ab-47e1-9246-c40fd5b2ae42","productName":"Realty Savings","providerLogoFileSystemId":"35825ed8-e3f0-4297-a4b1-85ee03aad0eb","amount":"451.00","interestRate":"4","duration":"3","categoryUrlSlug":"fixed-deposit-account","applicationStatus":"Savings Pending","applicationNumber":"24/FP-0068/NC/0090","allApplicationId":"f0893b55-1283-4654-8696-07f8838998bf","commonPersonalDetailID":"7c988305-919f-4dd5-aedf-85f8c8fb4ec1","customerIdentityId":null,"concurrencyHash":"9C8F5ECEC1357485C5DC821B08A03744CC507BB0203CE3EC5EF60E11C5CB160E","dataSource":"Common Applications","commonBankAccountDetailSourceId":"5b238507-47d0-4c40-ad70-c83c4a5cebeb","commonBankAccountDetailIncomingId":"5b238507-47d0-4c40-ad70-c83c4a5cebeb","commonAddressDetailId":"90255eeb-6d6c-492a-a20d-52b6c263ae00","nextOfKinDetailId":"9c4fa543-9dee-47d4-805e-ca99f90a8ca5","campaignID":"","productType":"Fixed Deposit"},{"applicationID":"510d48e3-aa3f-48c6-a403-395a1e3f5401","productID":"aadaa410-06b9-43f7-b7a9-f44d4c26ac85","categoryName":"Fixed Deposit Account","customerID":"d45a0445-9bf2-4cf2-aa4c-19c67e5f43dd","dateOfApplication":"2024-02-20T00:00:00","dateCreated":"2024-02-20T17:13:53.527","firstName":"Priscaline","lastName":"Uzor","email":"priscaline@assurdly.com","phone":"+2347086490512","gender":"female","providerName":"Realty Invest Network Solution","providerID":"f2158613-d3ab-47e1-9246-c40fd5b2ae42","productName":"Realty Savings","providerLogoFileSystemId":"35825ed8-e3f0-4297-a4b1-85ee03aad0eb","amount":"403.00","interestRate":"4","duration":"3","categoryUrlSlug":"fixed-deposit-account","applicationStatus":"Savings Pending","applicationNumber":"24/FP-0068/NC/0087","allApplicationId":"31dca60a-a6e9-4a91-b950-6d50952fd530","commonPersonalDetailID":"89bdf560-3b55-4efe-b7b2-4bcc01273925","customerIdentityId":null,"concurrencyHash":"122618F5ACD81901F0A947EA612E8AAA05B8BC79716B9146E319CE1C19A0F7A9","dataSource":"Common Applications","commonBankAccountDetailSourceId":"7db29667-46c4-4452-9085-8383b51242d3","commonBankAccountDetailIncomingId":"7db29667-46c4-4452-9085-8383b51242d3","commonAddressDetailId":"7e1f071e-11d1-417a-b9a4-1c228d6e604d","nextOfKinDetailId":"27b09b9a-476d-4238-b783-1407c63d3539","campaignID":"","productType":"Fixed Deposit"},{"applicationID":"bc8e2d25-14fe-496d-9840-a4fb331893d9","productID":"aadaa410-06b9-43f7-b7a9-f44d4c26ac85","categoryName":"Fixed Deposit Account","customerID":"d45a0445-9bf2-4cf2-aa4c-19c67e5f43dd","dateOfApplication":"2024-02-20T00:00:00","dateCreated":"2024-02-20T18:46:32.903","firstName":"Priscaline","lastName":"Uzor","email":"priscaline@assurdly.com","phone":"+2347086490512","gender":"female","providerName":"Realty Invest Network Solution","providerID":"f2158613-d3ab-47e1-9246-c40fd5b2ae42","productName":"Realty Savings","providerLogoFileSystemId":"35825ed8-e3f0-4297-a4b1-85ee03aad0eb","amount":"491.00","interestRate":"4","duration":"3","categoryUrlSlug":"fixed-deposit-account","applicationStatus":"Savings Pending","applicationNumber":"24/FP-0068/NC/0091","allApplicationId":"f569583f-d289-498f-8704-328c95c1b926","commonPersonalDetailID":"081e2b08-71d5-4a47-8ee4-316801cbb8b4","customerIdentityId":null,"concurrencyHash":"5B4511CE0D4D5A1B3B18A127530290788683F2BF0B9C4B0A80B664CF56066224","dataSource":"Common Applications","commonBankAccountDetailSourceId":"63b25177-629d-4352-ba4a-e47c411404dd","commonBankAccountDetailIncomingId":"63b25177-629d-4352-ba4a-e47c411404dd","commonAddressDetailId":"a41ce65f-4406-438b-ab00-fee486715c55","nextOfKinDetailId":"b2747136-0134-4c14-b621-883a87bc8cfe","campaignID":"","productType":"Fixed Deposit"},{"applicationID":"d212796c-b724-40d0-abf4-0dc78e9737a5","productID":"aadaa410-06b9-43f7-b7a9-f44d4c26ac85","categoryName":"Fixed Deposit Account","customerID":"d45a0445-9bf2-4cf2-aa4c-19c67e5f43dd","dateOfApplication":"2024-02-20T00:00:00","dateCreated":"2024-02-20T18:49:40.863","firstName":"Priscaline","lastName":"Uzor","email":"priscaline@assurdly.com","phone":"+2347086490512","gender":"female","providerName":"Realty Invest Network Solution","providerID":"f2158613-d3ab-47e1-9246-c40fd5b2ae42","productName":"Realty Savings","providerLogoFileSystemId":"35825ed8-e3f0-4297-a4b1-85ee03aad0eb","amount":"415.00","interestRate":"4","duration":"3","categoryUrlSlug":"fixed-deposit-account","applicationStatus":"Savings Pending","applicationNumber":"24/FP-0068/NC/0093","allApplicationId":"630c0ad6-b074-4f41-bebf-9dd23fad1da4","commonPersonalDetailID":"268e3281-46d4-4941-89f7-5e7e07a0b863","customerIdentityId":null,"concurrencyHash":"469E38D93C5A9FEB942567D8CD000C8985012895E327905B62FDBD2E3DC60EC2","dataSource":"Common Applications","commonBankAccountDetailSourceId":"45db7f16-a7e5-48e9-b015-a6127df63339","commonBankAccountDetailIncomingId":"45db7f16-a7e5-48e9-b015-a6127df63339","commonAddressDetailId":"3f1051f1-2e8f-4ecf-baeb-3f4de865e787","nextOfKinDetailId":"253bf3b0-5b4a-4a9c-b3bc-0df2d1ec2cbe","campaignID":"","productType":"Fixed Deposit"},{"applicationID":"0cb037ce-3e46-4921-9811-813cdfe9e1e0","productID":"aadaa410-06b9-43f7-b7a9-f44d4c26ac85","categoryName":"Fixed Deposit Account","customerID":"d45a0445-9bf2-4cf2-aa4c-19c67e5f43dd","dateOfApplication":"2024-02-09T00:00:00","dateCreated":"2024-02-09T19:26:57.903","firstName":"Priscaline","lastName":"Uzor","email":"priscaline@assurdly.com","phone":"+2347086490512","gender":"female","providerName":"Realty Invest Network Solution","providerID":"f2158613-d3ab-47e1-9246-c40fd5b2ae42","productName":"Realty Savings","providerLogoFileSystemId":"35825ed8-e3f0-4297-a4b1-85ee03aad0eb","amount":"418.00","interestRate":"4","duration":"3","categoryUrlSlug":"fixed-deposit-account","applicationStatus":"Provider Notified","applicationNumber":"24/FP-0068/NC/0072","allApplicationId":"d0518672-33f1-46af-a03d-92d6229c87df","commonPersonalDetailID":"8de9ac59-ea91-43b7-a64c-fc9c6038fe1f","customerIdentityId":null,"concurrencyHash":"A0CC5B6BF0DC9175506ED68833589ECE92936316675FCDF8AF00CA86A33A1590","dataSource":"Common Applications","commonBankAccountDetailSourceId":"c64d9ff8-3767-42ac-a2cc-0dc32301ea7f","commonBankAccountDetailIncomingId":"c64d9ff8-3767-42ac-a2cc-0dc32301ea7f","commonAddressDetailId":"5d92e889-ed3e-457b-88b1-badcd3f1c3a1","nextOfKinDetailId":"456285ec-0499-4143-9768-3772c58c0ab6","campaignID":"","productType":"Fixed Deposit"},{"applicationID":"3cf2724d-f3a0-4f48-b2c0-6b1b7ff48ca5","productID":"aadaa410-06b9-43f7-b7a9-f44d4c26ac85","categoryName":"Fixed Deposit Account","customerID":"d45a0445-9bf2-4cf2-aa4c-19c67e5f43dd","dateOfApplication":"2024-02-02T00:00:00","dateCreated":"2024-02-02T18:21:17.15","firstName":"Priscaline","lastName":"Uzor","email":"priscaline@assurdly.com","phone":"+2347086490512","gender":"female","providerName":"Realty Invest Network Solution","providerID":"f2158613-d3ab-47e1-9246-c40fd5b2ae42","productName":"Realty Savings","providerLogoFileSystemId":"35825ed8-e3f0-4297-a4b1-85ee03aad0eb","amount":"458.00","interestRate":"4","duration":"3","categoryUrlSlug":"fixed-deposit-account","applicationStatus":"Savings Pending","applicationNumber":"24/FP-0068/NC/0065","allApplicationId":"3cf464fe-1616-4234-8836-f2202e61bc51","commonPersonalDetailID":"651a3ec8-e02e-4340-ac43-c2f8df2bd83f","customerIdentityId":null,"concurrencyHash":"55B91A9BB9B1D41D868B8B6FE920BF67A001AE9BA550B99B3E48115D1E120B12","dataSource":"Common Applications","commonBankAccountDetailSourceId":"133c3d7b-7433-4d1e-b429-a31dd424d504","commonBankAccountDetailIncomingId":"133c3d7b-7433-4d1e-b429-a31dd424d504","commonAddressDetailId":"1286129e-2232-4f32-bea4-1b708e021afa","nextOfKinDetailId":"5365ad60-1525-4116-b31d-c40f3cef241d","campaignID":"","productType":"Fixed Deposit"},{"applicationID":"b854a0cc-f3c1-4645-9caa-d76d01cafb95","productID":"aadaa410-06b9-43f7-b7a9-f44d4c26ac85","categoryName":"Fixed Deposit Account","customerID":"d45a0445-9bf2-4cf2-aa4c-19c67e5f43dd","dateOfApplication":"2024-01-29T00:00:00","dateCreated":"2024-01-29T11:09:50.51","firstName":"Priscaline","lastName":"Uzor","email":"priscaline@assurdly.com","phone":"+2347086490512","gender":"female","providerName":"Realty Invest Network Solution","providerID":"f2158613-d3ab-47e1-9246-c40fd5b2ae42","productName":"Realty Savings","providerLogoFileSystemId":"35825ed8-e3f0-4297-a4b1-85ee03aad0eb","amount":"498.00","interestRate":"4","duration":"3","categoryUrlSlug":"fixed-deposit-account","applicationStatus":"Savings Pending","applicationNumber":"24/FP-0068/NC/0045","allApplicationId":"fbc7af46-b137-4f6f-8424-f00d645b4f64","commonPersonalDetailID":"a9c8e935-74aa-4808-8035-e7d1ee9a0281","customerIdentityId":null,"concurrencyHash":"7B97470894EE498BA82A54A94958584669D5498747D377EE2E906AD43BE9ECC5","dataSource":"Common Applications","commonBankAccountDetailSourceId":"cfb4b222-3ee8-40dc-9d43-65b36557e8dd","commonBankAccountDetailIncomingId":"cfb4b222-3ee8-40dc-9d43-65b36557e8dd","commonAddressDetailId":"b659e1ca-6dad-497c-b3b1-72dc9916db26","nextOfKinDetailId":"78daa782-7037-47a8-bec2-7c8bfd5d2205","campaignID":"","productType":"Fixed Deposit"},{"applicationID":"fd44fb64-40ed-4e57-88f2-103e041fc5ae","productID":"aadaa410-06b9-43f7-b7a9-f44d4c26ac85","categoryName":"Fixed Deposit Account","customerID":"d45a0445-9bf2-4cf2-aa4c-19c67e5f43dd","dateOfApplication":"2024-01-29T00:00:00","dateCreated":"2024-01-29T11:19:32.373","firstName":"Priscaline","lastName":"Uzor","email":"priscaline@assurdly.com","phone":"+2347086490512","gender":"female","providerName":"Realty Invest Network Solution","providerID":"f2158613-d3ab-47e1-9246-c40fd5b2ae42","productName":"Realty Savings","providerLogoFileSystemId":"35825ed8-e3f0-4297-a4b1-85ee03aad0eb","amount":"449.00","interestRate":"4","duration":"3","categoryUrlSlug":"fixed-deposit-account","applicationStatus":"Savings Pending","applicationNumber":"24/FP-0068/NC/0046","allApplicationId":"3b3167cc-8626-4c92-acea-4c6bba241eeb","commonPersonalDetailID":"5c5aa7b4-6a88-494f-b95e-42d0c1bfa409","customerIdentityId":null,"concurrencyHash":"D63368D5177C978186DABE183BBFD2B8DBEFDB34C102C6C294AB0D2D639484D9","dataSource":"Common Applications","commonBankAccountDetailSourceId":"d18dbb34-01bc-4919-9c65-ef18d9622345","commonBankAccountDetailIncomingId":"d18dbb34-01bc-4919-9c65-ef18d9622345","commonAddressDetailId":"7755923e-22ab-42b5-bd24-454e812355cf","nextOfKinDetailId":"b8918a8a-b206-418f-b360-cbae0b446ff6","campaignID":"","productType":"Fixed Deposit"},{"applicationID":"eb76d7d9-d6c4-4fef-a9e2-df83910ce0d3","productID":"aadaa410-06b9-43f7-b7a9-f44d4c26ac85","categoryName":"Fixed Deposit Account","customerID":"d45a0445-9bf2-4cf2-aa4c-19c67e5f43dd","dateOfApplication":"2024-01-24T00:00:00","dateCreated":"2024-01-24T18:22:28.367","firstName":"Priscaline","lastName":"Uzor","email":"priscaline@assurdly.com","phone":"+2347086490512","gender":"female","providerName":"Realty Invest Network Solution","providerID":"f2158613-d3ab-47e1-9246-c40fd5b2ae42","productName":"Realty Savings","providerLogoFileSystemId":"35825ed8-e3f0-4297-a4b1-85ee03aad0eb","amount":"445.00","interestRate":"4","duration":"3","categoryUrlSlug":"fixed-deposit-account","applicationStatus":"Savings Pending","applicationNumber":"24/FP-0068/NC/0041","allApplicationId":"60175e64-3f19-4801-94d2-29ea95812192","commonPersonalDetailID":"65763abf-c38d-4c17-ba79-cecac20b17d0","customerIdentityId":null,"concurrencyHash":"B8229E68841B67BFE4A816F8085A9FB01665E46228BD0913F62248E8DB9FE30D","dataSource":"Common Applications","commonBankAccountDetailSourceId":"402015fe-048b-4136-a1f2-a53e3030d8a9","commonBankAccountDetailIncomingId":"402015fe-048b-4136-a1f2-a53e3030d8a9","commonAddressDetailId":"66104c23-de46-4a1b-a013-0748a8bb8160","nextOfKinDetailId":"4d2877dc-87c2-43bc-9379-a6ea420f5863","campaignID":"","productType":"Fixed Deposit"},{"applicationID":"2a9e0358-65bf-4db3-a630-1cedec3c2f11","productID":"aadaa410-06b9-43f7-b7a9-f44d4c26ac85","categoryName":"Fixed Deposit Account","customerID":"d45a0445-9bf2-4cf2-aa4c-19c67e5f43dd","dateOfApplication":"2024-01-23T00:00:00","dateCreated":"2024-01-23T18:50:27.337","firstName":"Priscaline","lastName":"Uzor","email":"priscaline@assurdly.com","phone":"+2347086490512","gender":"female","providerName":"Realty Invest Network Solution","providerID":"f2158613-d3ab-47e1-9246-c40fd5b2ae42","productName":"Realty Savings","providerLogoFileSystemId":"35825ed8-e3f0-4297-a4b1-85ee03aad0eb","amount":"464.00","interestRate":"4","duration":"3","categoryUrlSlug":"fixed-deposit-account","applicationStatus":"Savings Pending","applicationNumber":"24/FP-0068/NC/0037","allApplicationId":"df5b8137-2a24-49bd-b9bc-a79d590b7046","commonPersonalDetailID":"3bfe4aa9-7a24-4e71-b8b0-f2be53430f69","customerIdentityId":null,"concurrencyHash":"AD0B4382879891878296EE149828CE7EC2774DA91B7E088473E0942FDDCCDC9B","dataSource":"Common Applications","commonBankAccountDetailSourceId":"b5a7822d-90c8-403d-92fb-86276312e5ff","commonBankAccountDetailIncomingId":"b5a7822d-90c8-403d-92fb-86276312e5ff","commonAddressDetailId":"a4703896-c528-4e72-a00f-6a9bb521e6e7","nextOfKinDetailId":"d9a8c6ca-4a67-4e28-9f46-fa690ed9d0b2","campaignID":"","productType":"Fixed Deposit"},{"applicationID":"871a89ff-5d29-4c38-9e13-85c7308d0651","productID":"aadaa410-06b9-43f7-b7a9-f44d4c26ac85","categoryName":"Fixed Deposit Account","customerID":"d45a0445-9bf2-4cf2-aa4c-19c67e5f43dd","dateOfApplication":"2024-01-23T00:00:00","dateCreated":"2024-01-23T18:13:29.51","firstName":"Priscaline","lastName":"Uzor","email":"priscaline@assurdly.com","phone":"+2347086490512","gender":"female","providerName":"Realty Invest Network Solution","providerID":"f2158613-d3ab-47e1-9246-c40fd5b2ae42","productName":"Realty Savings","providerLogoFileSystemId":"35825ed8-e3f0-4297-a4b1-85ee03aad0eb","amount":"419.00","interestRate":"4","duration":"3","categoryUrlSlug":"fixed-deposit-account","applicationStatus":"Savings Pending","applicationNumber":"24/FP-0068/NC/0031","allApplicationId":"4e80f9c3-c0fd-476e-a62b-836fcf68a3dd","commonPersonalDetailID":"85a634db-da8d-44ad-8593-7998c77211ab","customerIdentityId":null,"concurrencyHash":"2233B4A1DEE1425A351A1E15E56A7C766CB9E52CDB0643435EF1CF2C97944FAD","dataSource":"Common Applications","commonBankAccountDetailSourceId":"2e1ca2e1-3e67-4976-9bf8-15323e65202d","commonBankAccountDetailIncomingId":"2e1ca2e1-3e67-4976-9bf8-15323e65202d","commonAddressDetailId":"a7654cb0-5ab0-4041-9062-174ef1ad2dc2","nextOfKinDetailId":"d23668e5-a912-43a9-a425-84462c1d86e3","campaignID":"","productType":"Fixed Deposit"},{"applicationID":"975e98bf-49d2-4fa1-9f35-fa486ecee797","productID":"aadaa410-06b9-43f7-b7a9-f44d4c26ac85","categoryName":"Fixed Deposit Account","customerID":"d45a0445-9bf2-4cf2-aa4c-19c67e5f43dd","dateOfApplication":"2024-01-22T00:00:00","dateCreated":"2024-01-22T17:31:46.817","firstName":"Priscaline","lastName":"Uzor","email":"priscaline@assurdly.com","phone":"+2347086490512","gender":"female","providerName":"Realty Invest Network Solution","providerID":"f2158613-d3ab-47e1-9246-c40fd5b2ae42","productName":"Realty Savings","providerLogoFileSystemId":"35825ed8-e3f0-4297-a4b1-85ee03aad0eb","amount":"413.00","interestRate":"4","duration":"3","categoryUrlSlug":"fixed-deposit-account","applicationStatus":"Savings Pending","applicationNumber":"24/FP-0068/NC/0043","allApplicationId":"62ca4a71-84d3-4fd0-afc5-e339954a3beb","commonPersonalDetailID":"ced1bd53-69ee-4e5e-883d-43a5472c66e5","customerIdentityId":null,"concurrencyHash":"78C245D19725FCE1B732718CB5D0E012D434F1F8BF8F4F140BB9F73E6932520A","dataSource":"Common Applications","commonBankAccountDetailSourceId":"81869723-7817-42be-8d8f-4a37453e9eb4","commonBankAccountDetailIncomingId":"81869723-7817-42be-8d8f-4a37453e9eb4","commonAddressDetailId":"8d51c16f-9446-4dd6-81e9-a26df6021511","nextOfKinDetailId":"ab6feae7-0de2-418b-a6ca-22bdd4f6d194","campaignID":"","productType":"Fixed Deposit"},{"applicationID":"b34cadd2-36bb-4b3f-a1ca-702005b74e4b","productID":"aadaa410-06b9-43f7-b7a9-f44d4c26ac85","categoryName":"Fixed Deposit Account","customerID":"d45a0445-9bf2-4cf2-aa4c-19c67e5f43dd","dateOfApplication":"2024-01-16T00:00:00","dateCreated":"2024-01-16T16:30:09.897","firstName":"Priscaline","lastName":"Uzor","email":"priscaline@assurdly.com","phone":"+2347086490512","gender":"female","providerName":"Realty Invest Network Solution","providerID":"f2158613-d3ab-47e1-9246-c40fd5b2ae42","productName":"Realty Savings","providerLogoFileSystemId":"35825ed8-e3f0-4297-a4b1-85ee03aad0eb","amount":"487.00","interestRate":"4","duration":"3","categoryUrlSlug":"fixed-deposit-account","applicationStatus":"Savings Pending","applicationNumber":"24/FP-0068/NC/0029","allApplicationId":"84144df8-fd82-4e9e-a815-16bd03c8cc65","commonPersonalDetailID":"32579c54-e631-4adb-8359-a09226adef25","customerIdentityId":null,"concurrencyHash":"0F9C71B6C3C648F6E6E5B5BC60F9AF6A3E7CB3599D93227320008A1C75F9C4B6","dataSource":"Common Applications","commonBankAccountDetailSourceId":"afaadc9d-0b30-41c9-8781-a3a3078444f6","commonBankAccountDetailIncomingId":"afaadc9d-0b30-41c9-8781-a3a3078444f6","commonAddressDetailId":"fbf77ad1-fa5a-446a-b74b-533fdc7d3967","nextOfKinDetailId":"e2d9712d-d99d-422e-8e4a-f759b9de1b4b","campaignID":"","productType":"Fixed Deposit"},{"applicationID":"7a03a9c3-e5f1-41cb-8abd-db155d0b16d8","productID":"aadaa410-06b9-43f7-b7a9-f44d4c26ac85","categoryName":"Fixed Deposit Account","customerID":"d45a0445-9bf2-4cf2-aa4c-19c67e5f43dd","dateOfApplication":"2024-01-08T00:00:00","dateCreated":"2024-01-08T22:11:19.897","firstName":"Priscaline","lastName":"Uzor","email":"priscaline@assurdly.com","phone":"+2347086490512","gender":"female","providerName":"Realty Invest Network Solution","providerID":"f2158613-d3ab-47e1-9246-c40fd5b2ae42","productName":"Realty Savings","providerLogoFileSystemId":"35825ed8-e3f0-4297-a4b1-85ee03aad0eb","amount":"493.00","interestRate":"4","duration":"3","categoryUrlSlug":"fixed-deposit-account","applicationStatus":"Savings Pending","applicationNumber":"24/FP-0068/NC/0007","allApplicationId":"fb4e219f-518c-4488-b3d8-d61ad99377aa","commonPersonalDetailID":"621d190a-0b3c-4140-8b91-dad1959fccae","customerIdentityId":null,"concurrencyHash":"0DEDB274646A43BDE12CE5AAE2FA7D28C5E4EBE6A207B0E578351E7BC487F395","dataSource":"Common Applications","commonBankAccountDetailSourceId":"5aa8e7d8-92eb-4425-b127-257075635466","commonBankAccountDetailIncomingId":"5aa8e7d8-92eb-4425-b127-257075635466","commonAddressDetailId":"5b66b734-5b5b-46eb-a8a0-ecd22da9c85f","nextOfKinDetailId":"6b098e9b-c824-466c-a8fe-ea1e86e0c93d","campaignID":"","productType":"Fixed Deposit"}]],"details":null},"errors":null,"statusCode":200}