{"isSuccess":true,"message":"Success","data":{"successMessage":"Records retrieved successfully","errorMessage":null,"responseCode":200,"total":1731,"totalPages":174,"rowsPerPage":10,"pageItemsCount":10,"pageNumber":1,"queryString":"","list":[[{"applicationID":"3edd0766-6ffb-4d85-8f7d-ac75d276860e","productID":"aadaa410-06b9-43f7-b7a9-f44d4c26ac85","categoryName":"Fixed Deposit Account","customerID":"d45a0445-9bf2-4cf2-aa4c-19c67e5f43dd","dateOfApplication":"2024-03-16T00:00:00","dateCreated":"2024-03-16T02:52:08.527","firstName":"Priscaline","lastName":"Uzor","email":"priscaline@assurdly.com","phone":"+2347086490512","gender":"female","providerName":"Realty Invest Network Solution","providerID":"f2158613-d3ab-47e1-9246-c40fd5b2ae42","productName":"Realty Savings","providerLogoFileSystemId":"35825ed8-e3f0-4297-a4b1-85ee03aad0eb","amount":"861.00","interestRate":"4","duration":"3","categoryUrlSlug":"fixed-deposit-account","applicationStatus":"Savings Pending","applicationNumber":"24/FP-0068/NC/0073","allApplicationId":"2aaa34a6-e57a-47df-b4ff-8ca00df2fd78","commonPersonalDetailID":"9f9dd8b5-76aa-4b43-b081-c17d15b8f0e8","customerIdentityId":null,"concurrencyHash":"2419F191486260CB3A1B87DC839A7B2E870E941EF546A07B4E4469F6432170EB","dataSource":"Common Applications","commonBankAccountDetailSourceId":"46772af9-3ea7-4440-a847-b479e7fb8d09","commonBankAccountDetailIncomingId":"46772af9-3ea7-4440-a847-b479e7fb8d09","commonAddressDetailId":"ead20df4-f7cf-44f7-9999-55cbcba17b2a","nextOfKinDetailId":"c1964523-aee4-4f8b-8e21-8cc4b1fc49f7","campaignID":"","productType":"Fixed Deposit"},{"applicationID":"4fa3dc9e-feba-4064-9417-8b1cc260f513","productID":"46fd9ca6-f179-4d56-9e45-b50b257a65c2","categoryName":"Children's Savings Account","customerID":"6f0f0344-4c13-4e06-a5df-29cab489c206","dateOfApplication":"2024-03-16T00:00:00","dateCreated":"2024-03-16T02:52:10.403","firstName":"Richard","lastName":"Adibe","email":"adiberichard12@gmail.com","phone":"2348066923517","gender":"male","providerName":"Realty Invest Network Solution","providerID":"f2158613-d3ab-47e1-9246-c40fd5b2ae42","productName":"Realty Children Savings","providerLogoFileSystemId":"35825ed8-e3f0-4297-a4b1-85ee03aad0eb","amount":"10000.00","interestRate":null,"duration":"3","categoryUrlSlug":"children-savings-account","applicationStatus":"Savings Pending","applicationNumber":"24/FP-0068/NC/1138","allApplicationId":"6d87f26e-f283-4d28-a3b2-83ce4fc883a4","commonPersonalDetailID":null,"customerIdentityId":null,"concurrencyHash":null,"dataSource":"Customer Savings","commonBankAccountDetailSourceId":null,"commonBankAccountDetailIncomingId":null,"commonAddressDetailId":null,"nextOfKinDetailId":"7b0382fb-56ef-4a85-88c2-6cd511ba8be7","campaignID":null,"productType":"Savings"},{"applicationID":"f3ca2bcd-4676-452f-9006-93a179eb8c61","productID":"aadaa410-06b9-43f7-b7a9-f44d4c26ac85","categoryName":"Fixed Deposit Account","customerID":"d45a0445-9bf2-4cf2-aa4c-19c67e5f43dd","dateOfApplication":"2024-03-16T00:00:00","dateCreated":"2024-03-16T02:52:33.17","firstName":"Priscaline","lastName":"Uzor","email":"priscaline@assurdly.com","phone":"+2347086490512","gender":"female","providerName":"Realty Invest Network Solution","providerID":"f2158613-d3ab-47e1-9246-c40fd5b2ae42","productName":"Realty Savings","providerLogoFileSystemId":"35825ed8-e3f0-4297-a4b1-85ee03aad0eb","amount":"668.00","interestRate":"4","duration":"3","categoryUrlSlug":"fixed-deposit-account","applicationStatus":"Savings Pending","applicationNumber":"24/FP-0068/NC/0074","allApplicationId":"a4ac7801-92ae-496d-aaae-16d6d940e1ee","commonPersonalDetailID":"e9195a17-4647-4155-b77f-210541c98e6a","customerIdentityId":null,"concurrencyHash":"9D76879D2812A3DFBE426169DA199DD035F58F32395E4745679A93DCA0C88698","dataSource":"Common Applications","commonBankAccountDetailSourceId":"e78bc37c-f85f-4585-95ce-7b514f88bb5f","commonBankAccountDetailIncomingId":"e78bc37c-f85f-4585-95ce-7b514f88bb5f","commonAddressDetailId":"42af98b8-85fc-4a36-b00d-8d82055faeeb","nextOfKinDetailId":"8deccd6d-78b6-47c0-9323-bdc687b0852b","campaignID":"","productType":"Fixed Deposit"},{"applicationID":"0120c70d-4b7e-4f5f-acc9-3ea1592abee0","productID":"aadaa410-06b9-43f7-b7a9-f44d4c26ac85","categoryName":"Fixed Deposit Account","customerID":"d45a0445-9bf2-4cf2-aa4c-19c67e5f43dd","dateOfApplication":"2024-03-15T00:00:00","dateCreated":"2024-03-15T18:14:38.227","firstName":"Priscaline","lastName":"Uzor","email":"priscaline@assurdly.com","phone":"+2347086490512","gender":"female","providerName":"Realty Invest Network Solution","providerID":"f2158613-d3ab-47e1-9246-c40fd5b2ae42","productName":"Realty Savings","providerLogoFileSystemId":"35825ed8-e3f0-4297-a4b1-85ee03aad0eb","amount":"312.00","interestRate":"4","duration":"3","categoryUrlSlug":"fixed-deposit-account","applicationStatus":"Savings Pending","applicationNumber":"24/FP-0068/NC/0092","allApplicationId":"da775bfe-51b6-430c-ac15-5cf0bf54f0c5","commonPersonalDetailID":"906786da-dce0-4186-9fb4-b4318c71ee9c","customerIdentityId":null,"concurrencyHash":"B3D859A4E09846F38DAB7ACAFCA05EC53A538D9EB71F6902EF9B4CA8721BF6C2","dataSource":"Common Applications","commonBankAccountDetailSourceId":"8f949955-7dd0-4003-b059-bf70091cd469","commonBankAccountDetailIncomingId":"8f949955-7dd0-4003-b059-bf70091cd469","commonAddressDetailId":"d54d302c-3ada-4385-a65c-a4f69849b2e3","nextOfKinDetailId":"55ec97dd-598b-4b7a-9a67-aa2864e17a9b","campaignID":"","productType":"Fixed Deposit"},{"applicationID":"a39b0173-b073-436b-9c44-18597a7d8b4f","productID":"aadaa410-06b9-43f7-b7a9-f44d4c26ac85","categoryName":"Fixed Deposit Account","customerID":"d45a0445-9bf2-4cf2-aa4c-19c67e5f43dd","dateOfApplication":"2024-03-15T00:00:00","dateCreated":"2024-03-15T18:12:26.763","firstName":"Priscaline","lastName":"Uzor","email":"priscaline@assurdly.com","phone":"+2347086490512","gender":"female","providerName":"Realty Invest Network Solution","providerID":"f2158613-d3ab-47e1-9246-c40fd5b2ae42","productName":"Realty Savings","providerLogoFileSystemId":"35825ed8-e3f0-4297-a4b1-85ee03aad0eb","amount":"291.00","interestRate":"4","duration":"3","categoryUrlSlug":"fixed-deposit-account","applicationStatus":"Savings Pending","applicationNumber":"24/FP-0068/NC/0091","allApplicationId":"6ac273c8-fbe4-4b18-80d0-8f0f5923f247","commonPersonalDetailID":"782ccc93-d71c-46c3-b13f-a517c2444ac9","customerIdentityId":null,"concurrencyHash":"0196296BA7A3ED7FA4DA9F7F27EECF0F6305F88F4CE71EA2BDA5F0EF7E3ED9D6","dataSource":"Common Applications","commonBankAccountDetailSourceId":"da618f96-532d-4929-bf63-73ac1fd886ec","commonBankAccountDetailIncomingId":"da618f96-532d-4929-bf63-73ac1fd886ec","commonAddressDetailId":"e6545de7-2120-495b-a019-2b1b2f57440e","nextOfKinDetailId":"b223c074-0fba-4723-beee-c4235b9224b6","campaignID":"","productType":"Fixed Deposit"},{"applicationID":"d0a9a362-fa0e-425c-b7aa-9cc7c2640f05","productID":"46fd9ca6-f179-4d56-9e45-b50b257a65c2","categoryName":"Children's Savings Account","customerID":"6f0f0344-4c13-4e06-a5df-29cab489c206","dateOfApplication":"2024-03-15T00:00:00","dateCreated":"2024-03-15T18:12:28.963","firstName":"Richard","lastName":"Adibe","email":"adiberichard12@gmail.com","phone":"2348066923517","gender":"male","providerName":"Realty Invest Network Solution","providerID":"f2158613-d3ab-47e1-9246-c40fd5b2ae42","productName":"Realty Children Savings","providerLogoFileSystemId":"35825ed8-e3f0-4297-a4b1-85ee03aad0eb","amount":"10000.00","interestRate":null,"duration":"3","categoryUrlSlug":"children-savings-account","applicationStatus":"Savings Pending","applicationNumber":"24/FP-0068/NC/1136","allApplicationId":"4d6e1fde-cddd-42b3-8e82-19619b81174a","commonPersonalDetailID":null,"customerIdentityId":null,"concurrencyHash":null,"dataSource":"Customer Savings","commonBankAccountDetailSourceId":null,"commonBankAccountDetailIncomingId":null,"commonAddressDetailId":null,"nextOfKinDetailId":"865456ff-c37f-4b30-8a2c-3e860cf1a58b","campaignID":null,"productType":"Savings"},{"applicationID":"0681caac-d13c-4c4f-a94c-188a3eda0ca8","productID":"aadaa410-06b9-43f7-b7a9-f44d4c26ac85","categoryName":"Fixed Deposit Account","customerID":"d45a0445-9bf2-4cf2-aa4c-19c67e5f43dd","dateOfApplication":"2024-03-12T00:00:00","dateCreated":"2024-03-12T04:38:24.993","firstName":"Priscaline","lastName":"Uzor","email":"priscaline@assurdly.com","phone":"+2347086490512","gender":"female","providerName":"Realty Invest Network Solution","providerID":"f2158613-d3ab-47e1-9246-c40fd5b2ae42","productName":"Realty Savings","providerLogoFileSystemId":"35825ed8-e3f0-4297-a4b1-85ee03aad0eb","amount":"651.00","interestRate":"4","duration":"3","categoryUrlSlug":"fixed-deposit-account","applicationStatus":"Savings Pending","applicationNumber":"24/FP-0068/NC/0079","allApplicationId":"464cd48e-2f14-4259-b352-39629ae7ef68","commonPersonalDetailID":"3cbe9b3b-fdd0-4159-a7d3-774fa7f18291","customerIdentityId":null,"concurrencyHash":"0A57419A191A93226F00529FB15485A6B56D6D45949794601CB0F6B0588E78DF","dataSource":"Common Applications","commonBankAccountDetailSourceId":"3b06e8b1-15ad-4079-be83-b64e41268625","commonBankAccountDetailIncomingId":"3b06e8b1-15ad-4079-be83-b64e41268625","commonAddressDetailId":"35fd2012-981d-4fcf-b752-403d5add7136","nextOfKinDetailId":"030dda44-acfd-425c-a5f5-484edef28e34","campaignID":"","productType":"Fixed Deposit"},{"applicationID":"0779282e-5068-410d-a3a2-1c4860f4cfa8","productID":"aadaa410-06b9-43f7-b7a9-f44d4c26ac85","categoryName":"Fixed Deposit Account","customerID":"d45a0445-9bf2-4cf2-aa4c-19c67e5f43dd","dateOfApplication":"2024-03-12T00:00:00","dateCreated":"2024-03-12T04:44:10.31","firstName":"Priscaline","lastName":"Uzor","email":"priscaline@assurdly.com","phone":"+2347086490512","gender":"female","providerName":"Realty Invest Network Solution","providerID":"f2158613-d3ab-47e1-9246-c40fd5b2ae42","productName":"Realty Savings","providerLogoFileSystemId":"35825ed8-e3f0-4297-a4b1-85ee03aad0eb","amount":"805.00","interestRate":"4","duration":"3","categoryUrlSlug":"fixed-deposit-account","applicationStatus":"Savings Pending","applicationNumber":"24/FP-0068/NC/0084","allApplicationId":"17f43cc5-17ba-4b9c-a496-b3d6c1cf788b","commonPersonalDetailID":"2320d400-0cf9-4e13-91b3-7d0512ced25a","customerIdentityId":null,"concurrencyHash":"FDE5E7BACEB4B13E9B6245963116EBF0A5A82FE6CF1105BF1C584E4E49DC6798","dataSource":"Common Applications","commonBankAccountDetailSourceId":"0635d7dc-1352-4643-9864-ff345638ee86","commonBankAccountDetailIncomingId":"0635d7dc-1352-4643-9864-ff345638ee86","commonAddressDetailId":"c593d2bb-50a7-4e87-a992-76d127b91272","nextOfKinDetailId":"44b0d167-a450-416b-aa70-28bd595823a2","campaignID":"","productType":"Fixed Deposit"},{"applicationID":"09d06b9d-ee19-4831-8179-5a168da804bc","productID":"aadaa410-06b9-43f7-b7a9-f44d4c26ac85","categoryName":"Fixed Deposit Account","customerID":"d45a0445-9bf2-4cf2-aa4c-19c67e5f43dd","dateOfApplication":"2024-03-12T00:00:00","dateCreated":"2024-03-12T03:54:16.397","firstName":"Priscaline","lastName":"Uzor","email":"priscaline@assurdly.com","phone":"+2347086490512","gender":"female","providerName":"Realty Invest Network Solution","providerID":"f2158613-d3ab-47e1-9246-c40fd5b2ae42","productName":"Realty Savings","providerLogoFileSystemId":"35825ed8-e3f0-4297-a4b1-85ee03aad0eb","amount":"691.00","interestRate":"4","duration":"3","categoryUrlSlug":"fixed-deposit-account","applicationStatus":"Savings Pending","applicationNumber":"24/FP-0068/NC/0078","allApplicationId":"a4dd8937-e619-4924-bf7a-7b731d61dc00","commonPersonalDetailID":"4c40efee-3964-4c25-a156-06a325dba4b9","customerIdentityId":null,"concurrencyHash":"E28DCA618E76E8AE918210CAE360ADF10E7DF36A95C1DDFB24A435BC3B2BC7FA","dataSource":"Common Applications","commonBankAccountDetailSourceId":"bc709381-ad05-4711-bd3b-578551e222ae","commonBankAccountDetailIncomingId":"bc709381-ad05-4711-bd3b-578551e222ae","commonAddressDetailId":"55f62e13-3336-44e7-90e4-213be76ac956","nextOfKinDetailId":"8802f30f-5cc4-46b5-b14b-718e814a14e6","campaignID":"","productType":"Fixed Deposit"},{"applicationID":"0c322b52-618e-4c89-bcc1-d43457f0dc39","productID":"46fd9ca6-f179-4d56-9e45-b50b257a65c2","categoryName":"Children's Savings Account","customerID":"6f0f0344-4c13-4e06-a5df-29cab489c206","dateOfApplication":"2024-03-12T00:00:00","dateCreated":"2024-03-12T04:38:26.577","firstName":"Richard","lastName":"Adibe","email":"adiberichard12@gmail.com","phone":"2348066923517","gender":"male","providerName":"Realty Invest Network Solution","providerID":"f2158613-d3ab-47e1-9246-c40fd5b2ae42","productName":"Realty Children Savings","providerLogoFileSystemId":"35825ed8-e3f0-4297-a4b1-85ee03aad0eb","amount":"10000.00","interestRate":null,"duration":"3","categoryUrlSlug":"children-savings-account","applicationStatus":"Savings Pending","applicationNumber":"24/FP-0068/NC/1124","allApplicationId":"02d8aea4-4d0b-489c-a686-1dee123dc522","commonPersonalDetailID":null,"customerIdentityId":null,"concurrencyHash":null,"dataSource":"Customer Savings","commonBankAccountDetailSourceId":null,"commonBankAccountDetailIncomingId":null,"commonAddressDetailId":null,"nextOfKinDetailId":"a8f45f5c-86cf-4e5a-8e5b-26a6086903dd","campaignID":null,"productType":"Savings"}]],"details":null},"errors":null,"statusCode":200}